2024-06-17 10:37:49.828 -03:00 [INF] Request starting HTTP/1.1 GET http://localhost:5299/swagger/index.html - null null
2024-06-17 10:37:49.836 -03:00 [INF] Request finished HTTP/1.1 GET http://localhost:5299/swagger/index.html - 200 null text/html;charset=utf-8 7.815ms
2024-06-17 10:37:49.842 -03:00 [INF] Request starting HTTP/1.1 GET http://localhost:5299/_vs/browserLink - null null
2024-06-17 10:37:49.842 -03:00 [INF] Request starting HTTP/1.1 GET http://localhost:5299/_framework/aspnetcore-browser-refresh.js - null null
2024-06-17 10:37:49.850 -03:00 [INF] Request finished HTTP/1.1 GET http://localhost:5299/_framework/aspnetcore-browser-refresh.js - 200 13790 application/javascript; charset=utf-8 7.8304ms
2024-06-17 10:37:49.854 -03:00 [INF] Request finished HTTP/1.1 GET http://localhost:5299/_vs/browserLink - 200 null text/javascript; charset=UTF-8 11.8506ms
2024-06-17 10:37:49.938 -03:00 [INF] Request starting HTTP/1.1 GET http://localhost:5299/swagger/v1/swagger.json - null null
2024-06-17 10:37:49.946 -03:00 [INF] Request finished HTTP/1.1 GET http://localhost:5299/swagger/v1/swagger.json - 200 null application/json;charset=utf-8 8.2885ms
