2024-06-17 11:57:02.039 -03:00 [INF] User profile is available. Using 'C:\Users\jvsrv\AppData\Local\ASP.NET\DataProtection-Keys' as key repository and Windows DPAPI to encrypt keys at rest.
2024-06-17 11:57:02.250 -03:00 [INF] Now listening on: http://localhost:5299
2024-06-17 11:57:02.257 -03:00 [INF] Application started. Press Ctrl+C to shut down.
2024-06-17 11:57:02.258 -03:00 [INF] Hosting environment: Development
2024-06-17 11:57:02.260 -03:00 [INF] Content root path: C:\Dev\Finanças Pessoais Web API (Versão Final)\Finanças Pessoais Web API (Versão Final)\FinançasPessoaisWebAPI.Api
2024-06-17 11:57:03.299 -03:00 [INF] Request starting HTTP/1.1 GET http://localhost:5299/swagger/index.html - null null
2024-06-17 11:57:03.554 -03:00 [INF] Request finished HTTP/1.1 GET http://localhost:5299/swagger/index.html - 200 null text/html;charset=utf-8 264.6682ms
2024-06-17 11:57:03.580 -03:00 [INF] Request starting HTTP/1.1 GET http://localhost:5299/_framework/aspnetcore-browser-refresh.js - null null
2024-06-17 11:57:03.581 -03:00 [INF] Request starting HTTP/1.1 GET http://localhost:5299/_vs/browserLink - null null
2024-06-17 11:57:03.585 -03:00 [INF] Request finished HTTP/1.1 GET http://localhost:5299/_framework/aspnetcore-browser-refresh.js - 200 13790 application/javascript; charset=utf-8 5.3643ms
2024-06-17 11:57:03.619 -03:00 [INF] Request finished HTTP/1.1 GET http://localhost:5299/_vs/browserLink - 200 null text/javascript; charset=UTF-8 37.4288ms
2024-06-17 11:57:03.717 -03:00 [INF] Request starting HTTP/1.1 GET http://localhost:5299/swagger/v1/swagger.json - null null
2024-06-17 11:57:03.984 -03:00 [INF] Request finished HTTP/1.1 GET http://localhost:5299/swagger/v1/swagger.json - 200 null application/json;charset=utf-8 267.001ms
2024-06-17 11:57:28.836 -03:00 [INF] Request starting HTTP/1.1 OPTIONS http://localhost:5299/Login - null null
2024-06-17 11:57:28.843 -03:00 [INF] CORS policy execution successful.
2024-06-17 11:57:28.846 -03:00 [INF] Request finished HTTP/1.1 OPTIONS http://localhost:5299/Login - 204 null null 9.597ms
2024-06-17 11:57:28.856 -03:00 [INF] Request starting HTTP/1.1 POST http://localhost:5299/Login - application/json; charset=utf-8 53
2024-06-17 11:57:28.860 -03:00 [INF] CORS policy execution successful.
2024-06-17 11:57:28.864 -03:00 [WRN] Failed to determine the https port for redirect.
2024-06-17 11:57:28.960 -03:00 [INF] Executing endpoint 'FinançasPessoaisWebAPI.Api.Controllers.AutenticaçãoController.Selecionar (FinançasPessoaisWebAPI.Api)'
2024-06-17 11:57:28.975 -03:00 [INF] Route matched with {action = "Selecionar", controller = "Autenticação"}. Executing controller action with signature System.Threading.Tasks.Task`1[Microsoft.AspNetCore.Mvc.ActionResult`1[FinançasPessoaisWebAPI.Api.Models.UserToken]] Selecionar(FinançasPessoaisWebAPI.Api.Models.Login) on controller FinançasPessoaisWebAPI.Api.Controllers.AutenticaçãoController (FinançasPessoaisWebAPI.Api).
2024-06-17 11:57:29.751 -03:00 [WRN] Sensitive data logging is enabled. Log entries and exception messages may include sensitive application data; this mode should only be enabled during development.
2024-06-17 11:57:30.555 -03:00 [INF] Executed DbCommand (44ms) [Parameters=[@__ToLower_0='jvsrvictor@gmail.com' (Size = 255)], CommandType='"Text"', CommandTimeout='30']
SELECT TOP(1) [u].[Id], [u].[Admin], [u].[Email], [u].[Nome], [u].[SenhaHash], [u].[SenhaNormal]
FROM [Usuarios] AS [u]
WHERE LOWER([u].[Email]) = @__ToLower_0
2024-06-17 11:57:30.626 -03:00 [INF] Executed DbCommand (2ms) [Parameters=[@__ToLower_0='jvsrvictor@gmail.com' (Size = 255)], CommandType='"Text"', CommandTimeout='30']
SELECT TOP(1) [u].[Id], [u].[Admin], [u].[Email], [u].[Nome], [u].[SenhaHash], [u].[SenhaNormal]
FROM [Usuarios] AS [u]
WHERE LOWER([u].[Email]) = @__ToLower_0
2024-06-17 11:57:30.630 -03:00 [INF] Executed DbCommand (1ms) [Parameters=[@__ToLower_0='jvsrvictor@gmail.com' (Size = 255)], CommandType='"Text"', CommandTimeout='30']
SELECT TOP(1) [u].[Id], [u].[Admin], [u].[Email], [u].[Nome], [u].[SenhaHash], [u].[SenhaNormal]
FROM [Usuarios] AS [u]
WHERE LOWER([u].[Email]) = @__ToLower_0
2024-06-17 11:57:30.642 -03:00 [INF] Executing ObjectResult, writing value of type 'FinançasPessoaisWebAPI.Api.Models.UserToken'.
2024-06-17 11:57:30.650 -03:00 [INF] Executed action FinançasPessoaisWebAPI.Api.Controllers.AutenticaçãoController.Selecionar (FinançasPessoaisWebAPI.Api) in 1670.9625ms
2024-06-17 11:57:30.651 -03:00 [INF] Executed endpoint 'FinançasPessoaisWebAPI.Api.Controllers.AutenticaçãoController.Selecionar (FinançasPessoaisWebAPI.Api)'
2024-06-17 11:57:30.658 -03:00 [INF] Request finished HTTP/1.1 POST http://localhost:5299/Login - 200 null application/json; charset=utf-8 1802.0879ms
2024-06-17 11:57:31.102 -03:00 [INF] Request starting HTTP/1.1 OPTIONS http://localhost:5299/Receita?NumerodaPagina=1&Quantidade=50 - null null
2024-06-17 11:57:31.106 -03:00 [INF] CORS policy execution successful.
2024-06-17 11:57:31.107 -03:00 [INF] Request finished HTTP/1.1 OPTIONS http://localhost:5299/Receita?NumerodaPagina=1&Quantidade=50 - 204 null null 5.4438ms
2024-06-17 11:57:31.111 -03:00 [INF] Request starting HTTP/1.1 GET http://localhost:5299/Receita?NumerodaPagina=1&Quantidade=50 - null null
2024-06-17 11:57:31.114 -03:00 [INF] CORS policy execution successful.
2024-06-17 11:57:31.120 -03:00 [INF] Executing endpoint 'FinançasPessoaisWebAPI.Api.Controllers.TransacaoController.GetAllTransacaoAsync (FinançasPessoaisWebAPI.Api)'
2024-06-17 11:57:31.127 -03:00 [INF] Route matched with {action = "GetAllTransacao", controller = "Transacao"}. Executing controller action with signature System.Threading.Tasks.Task`1[Microsoft.AspNetCore.Mvc.IActionResult] GetAllTransacaoAsync(TipoTransacao, FinançasPessoaisWebAPI.Api.Models.PaginasParams) on controller FinançasPessoaisWebAPI.Api.Controllers.TransacaoController (FinançasPessoaisWebAPI.Api).
2024-06-17 11:57:31.216 -03:00 [INF] Executed DbCommand (14ms) [Parameters=[@__userId_0='1'], CommandType='"Text"', CommandTimeout='30']
SELECT COUNT(*)
FROM [Transacaos] AS [t]
LEFT JOIN [Categorias] AS [c] ON [t].[CategoriaId] = [c].[Id]
WHERE [c].[tipoTransacao] = N'Receita' AND [t].[UsuarioId] = @__userId_0
2024-06-17 11:57:31.257 -03:00 [INF] Executed DbCommand (4ms) [Parameters=[@__userId_0='1', @__p_1='0', @__p_2='50'], CommandType='"Text"', CommandTimeout='30']
SELECT [t0].[Id], [t0].[CategoriaId], [t0].[ContaId], [t0].[Data], [t0].[Descricao], [t0].[Recorrencia], [t0].[RecorrenciaDataLimite], [t0].[RecorrenciaModo], [t0].[RecorrenciaNVezes], [t0].[UsuarioId], [t0].[Valor], [t0].[Id0], [t0].[categoriaDespesa], [t0].[categoriaReceita], [t0].[tipoTransacao], [c0].[Id], [c0].[tipoConta], [u].[Id], [u].[Admin], [u].[Email], [u].[Nome], [u].[SenhaHash], [u].[SenhaNormal]
FROM (
    SELECT [t].[Id], [t].[CategoriaId], [t].[ContaId], [t].[Data], [t].[Descricao], [t].[Recorrencia], [t].[RecorrenciaDataLimite], [t].[RecorrenciaModo], [t].[RecorrenciaNVezes], [t].[UsuarioId], [t].[Valor], [c].[Id] AS [Id0], [c].[categoriaDespesa], [c].[categoriaReceita], [c].[tipoTransacao]
    FROM [Transacaos] AS [t]
    LEFT JOIN [Categorias] AS [c] ON [t].[CategoriaId] = [c].[Id]
    WHERE [c].[tipoTransacao] = N'Receita' AND [t].[UsuarioId] = @__userId_0
    ORDER BY [t].[Data] DESC
    OFFSET @__p_1 ROWS FETCH NEXT @__p_2 ROWS ONLY
) AS [t0]
LEFT JOIN [Contas] AS [c0] ON [t0].[ContaId] = [c0].[Id]
INNER JOIN [Usuarios] AS [u] ON [t0].[UsuarioId] = [u].[Id]
ORDER BY [t0].[Data] DESC
2024-06-17 11:57:31.289 -03:00 [INF] Executing OkObjectResult, writing value of type 'FinançasPessoaisWebAPI.Domain.Paginacao.Paginas`1[[FinançasPessoaisWebAPI.Application.DTOs.Transacao.TransacaoGetAllReceita, FinançasPessoaisWebAPI.Application, Version=1.0.0.0, Culture=neutral, PublicKeyToken=null]]'.
2024-06-17 11:57:31.310 -03:00 [INF] Executed action FinançasPessoaisWebAPI.Api.Controllers.TransacaoController.GetAllTransacaoAsync (FinançasPessoaisWebAPI.Api) in 182.0871ms
2024-06-17 11:57:31.312 -03:00 [INF] Executed endpoint 'FinançasPessoaisWebAPI.Api.Controllers.TransacaoController.GetAllTransacaoAsync (FinançasPessoaisWebAPI.Api)'
2024-06-17 11:57:31.313 -03:00 [INF] Request finished HTTP/1.1 GET http://localhost:5299/Receita?NumerodaPagina=1&Quantidade=50 - 200 null application/json; charset=utf-8 201.8108ms
2024-06-17 11:57:31.392 -03:00 [INF] Request starting HTTP/1.1 OPTIONS http://localhost:5299/Receita?NumerodaPagina=2&Quantidade=50 - null null
2024-06-17 11:57:31.394 -03:00 [INF] CORS policy execution successful.
2024-06-17 11:57:31.395 -03:00 [INF] Request finished HTTP/1.1 OPTIONS http://localhost:5299/Receita?NumerodaPagina=2&Quantidade=50 - 204 null null 2.9316ms
2024-06-17 11:57:31.397 -03:00 [INF] Request starting HTTP/1.1 GET http://localhost:5299/Receita?NumerodaPagina=2&Quantidade=50 - null null
2024-06-17 11:57:31.399 -03:00 [INF] CORS policy execution successful.
2024-06-17 11:57:31.403 -03:00 [INF] Executing endpoint 'FinançasPessoaisWebAPI.Api.Controllers.TransacaoController.GetAllTransacaoAsync (FinançasPessoaisWebAPI.Api)'
2024-06-17 11:57:31.404 -03:00 [INF] Route matched with {action = "GetAllTransacao", controller = "Transacao"}. Executing controller action with signature System.Threading.Tasks.Task`1[Microsoft.AspNetCore.Mvc.IActionResult] GetAllTransacaoAsync(TipoTransacao, FinançasPessoaisWebAPI.Api.Models.PaginasParams) on controller FinançasPessoaisWebAPI.Api.Controllers.TransacaoController (FinançasPessoaisWebAPI.Api).
2024-06-17 11:57:31.448 -03:00 [INF] Executed DbCommand (1ms) [Parameters=[@__userId_0='1'], CommandType='"Text"', CommandTimeout='30']
SELECT COUNT(*)
FROM [Transacaos] AS [t]
LEFT JOIN [Categorias] AS [c] ON [t].[CategoriaId] = [c].[Id]
WHERE [c].[tipoTransacao] = N'Receita' AND [t].[UsuarioId] = @__userId_0
2024-06-17 11:57:31.463 -03:00 [INF] Executed DbCommand (4ms) [Parameters=[@__userId_0='1', @__p_1='50'], CommandType='"Text"', CommandTimeout='30']
SELECT [t0].[Id], [t0].[CategoriaId], [t0].[ContaId], [t0].[Data], [t0].[Descricao], [t0].[Recorrencia], [t0].[RecorrenciaDataLimite], [t0].[RecorrenciaModo], [t0].[RecorrenciaNVezes], [t0].[UsuarioId], [t0].[Valor], [t0].[Id0], [t0].[categoriaDespesa], [t0].[categoriaReceita], [t0].[tipoTransacao], [c0].[Id], [c0].[tipoConta], [u].[Id], [u].[Admin], [u].[Email], [u].[Nome], [u].[SenhaHash], [u].[SenhaNormal]
FROM (
    SELECT [t].[Id], [t].[CategoriaId], [t].[ContaId], [t].[Data], [t].[Descricao], [t].[Recorrencia], [t].[RecorrenciaDataLimite], [t].[RecorrenciaModo], [t].[RecorrenciaNVezes], [t].[UsuarioId], [t].[Valor], [c].[Id] AS [Id0], [c].[categoriaDespesa], [c].[categoriaReceita], [c].[tipoTransacao]
    FROM [Transacaos] AS [t]
    LEFT JOIN [Categorias] AS [c] ON [t].[CategoriaId] = [c].[Id]
    WHERE [c].[tipoTransacao] = N'Receita' AND [t].[UsuarioId] = @__userId_0
    ORDER BY [t].[Data] DESC
    OFFSET @__p_1 ROWS FETCH NEXT @__p_1 ROWS ONLY
) AS [t0]
LEFT JOIN [Contas] AS [c0] ON [t0].[ContaId] = [c0].[Id]
INNER JOIN [Usuarios] AS [u] ON [t0].[UsuarioId] = [u].[Id]
ORDER BY [t0].[Data] DESC
2024-06-17 11:57:31.467 -03:00 [INF] Executing OkObjectResult, writing value of type 'FinançasPessoaisWebAPI.Domain.Paginacao.Paginas`1[[FinançasPessoaisWebAPI.Application.DTOs.Transacao.TransacaoGetAllReceita, FinançasPessoaisWebAPI.Application, Version=1.0.0.0, Culture=neutral, PublicKeyToken=null]]'.
2024-06-17 11:57:31.468 -03:00 [INF] Executed action FinançasPessoaisWebAPI.Api.Controllers.TransacaoController.GetAllTransacaoAsync (FinançasPessoaisWebAPI.Api) in 62.8906ms
2024-06-17 11:57:31.469 -03:00 [INF] Executed endpoint 'FinançasPessoaisWebAPI.Api.Controllers.TransacaoController.GetAllTransacaoAsync (FinançasPessoaisWebAPI.Api)'
2024-06-17 11:57:31.471 -03:00 [INF] Request finished HTTP/1.1 GET http://localhost:5299/Receita?NumerodaPagina=2&Quantidade=50 - 200 null application/json; charset=utf-8 73.3921ms
2024-06-17 11:57:31.474 -03:00 [INF] Request starting HTTP/1.1 OPTIONS http://localhost:5299/Despesa?NumerodaPagina=1&Quantidade=50 - null null
2024-06-17 11:57:31.476 -03:00 [INF] CORS policy execution successful.
2024-06-17 11:57:31.477 -03:00 [INF] Request finished HTTP/1.1 OPTIONS http://localhost:5299/Despesa?NumerodaPagina=1&Quantidade=50 - 204 null null 3.8706ms
2024-06-17 11:57:31.480 -03:00 [INF] Request starting HTTP/1.1 GET http://localhost:5299/Despesa?NumerodaPagina=1&Quantidade=50 - null null
2024-06-17 11:57:31.483 -03:00 [INF] CORS policy execution successful.
2024-06-17 11:57:31.484 -03:00 [INF] Executing endpoint 'FinançasPessoaisWebAPI.Api.Controllers.TransacaoController.GetAllTransacaoAsync (FinançasPessoaisWebAPI.Api)'
2024-06-17 11:57:31.485 -03:00 [INF] Route matched with {action = "GetAllTransacao", controller = "Transacao"}. Executing controller action with signature System.Threading.Tasks.Task`1[Microsoft.AspNetCore.Mvc.IActionResult] GetAllTransacaoAsync(TipoTransacao, FinançasPessoaisWebAPI.Api.Models.PaginasParams) on controller FinançasPessoaisWebAPI.Api.Controllers.TransacaoController (FinançasPessoaisWebAPI.Api).
2024-06-17 11:57:31.496 -03:00 [INF] Executed DbCommand (3ms) [Parameters=[@__userId_0='1'], CommandType='"Text"', CommandTimeout='30']
SELECT COUNT(*)
FROM [Transacaos] AS [t]
LEFT JOIN [Categorias] AS [c] ON [t].[CategoriaId] = [c].[Id]
WHERE [c].[tipoTransacao] = N'Despesa' AND [t].[UsuarioId] = @__userId_0
2024-06-17 11:57:31.522 -03:00 [INF] Executed DbCommand (5ms) [Parameters=[@__userId_0='1', @__p_1='0', @__p_2='50'], CommandType='"Text"', CommandTimeout='30']
SELECT [t0].[Id], [t0].[CategoriaId], [t0].[ContaId], [t0].[Data], [t0].[Descricao], [t0].[Recorrencia], [t0].[RecorrenciaDataLimite], [t0].[RecorrenciaModo], [t0].[RecorrenciaNVezes], [t0].[UsuarioId], [t0].[Valor], [t0].[Id0], [t0].[categoriaDespesa], [t0].[categoriaReceita], [t0].[tipoTransacao], [c0].[Id], [c0].[tipoConta], [u].[Id], [u].[Admin], [u].[Email], [u].[Nome], [u].[SenhaHash], [u].[SenhaNormal]
FROM (
    SELECT [t].[Id], [t].[CategoriaId], [t].[ContaId], [t].[Data], [t].[Descricao], [t].[Recorrencia], [t].[RecorrenciaDataLimite], [t].[RecorrenciaModo], [t].[RecorrenciaNVezes], [t].[UsuarioId], [t].[Valor], [c].[Id] AS [Id0], [c].[categoriaDespesa], [c].[categoriaReceita], [c].[tipoTransacao]
    FROM [Transacaos] AS [t]
    LEFT JOIN [Categorias] AS [c] ON [t].[CategoriaId] = [c].[Id]
    WHERE [c].[tipoTransacao] = N'Despesa' AND [t].[UsuarioId] = @__userId_0
    ORDER BY [t].[Data] DESC
    OFFSET @__p_1 ROWS FETCH NEXT @__p_2 ROWS ONLY
) AS [t0]
LEFT JOIN [Contas] AS [c0] ON [t0].[ContaId] = [c0].[Id]
INNER JOIN [Usuarios] AS [u] ON [t0].[UsuarioId] = [u].[Id]
ORDER BY [t0].[Data] DESC
2024-06-17 11:57:31.537 -03:00 [INF] Executing OkObjectResult, writing value of type 'FinançasPessoaisWebAPI.Domain.Paginacao.Paginas`1[[FinançasPessoaisWebAPI.Application.DTOs.Transacao.TransacaoGetAllDespesa, FinançasPessoaisWebAPI.Application, Version=1.0.0.0, Culture=neutral, PublicKeyToken=null]]'.
2024-06-17 11:57:31.551 -03:00 [INF] Executed action FinançasPessoaisWebAPI.Api.Controllers.TransacaoController.GetAllTransacaoAsync (FinançasPessoaisWebAPI.Api) in 64.1089ms
2024-06-17 11:57:31.552 -03:00 [INF] Executed endpoint 'FinançasPessoaisWebAPI.Api.Controllers.TransacaoController.GetAllTransacaoAsync (FinançasPessoaisWebAPI.Api)'
2024-06-17 11:57:31.554 -03:00 [INF] Request finished HTTP/1.1 GET http://localhost:5299/Despesa?NumerodaPagina=1&Quantidade=50 - 200 null application/json; charset=utf-8 73.7206ms
2024-06-17 11:57:38.875 -03:00 [INF] Request starting HTTP/1.1 OPTIONS http://localhost:5299/Receita?NumerodaPagina=1&Quantidade=50 - null null
2024-06-17 11:57:38.878 -03:00 [INF] CORS policy execution successful.
2024-06-17 11:57:38.879 -03:00 [INF] Request finished HTTP/1.1 OPTIONS http://localhost:5299/Receita?NumerodaPagina=1&Quantidade=50 - 204 null null 3.3966ms
2024-06-17 11:57:38.881 -03:00 [INF] Request starting HTTP/1.1 GET http://localhost:5299/Receita?NumerodaPagina=1&Quantidade=50 - null null
2024-06-17 11:57:38.883 -03:00 [INF] CORS policy execution successful.
2024-06-17 11:57:38.884 -03:00 [INF] Executing endpoint 'FinançasPessoaisWebAPI.Api.Controllers.TransacaoController.GetAllTransacaoAsync (FinançasPessoaisWebAPI.Api)'
2024-06-17 11:57:38.885 -03:00 [INF] Route matched with {action = "GetAllTransacao", controller = "Transacao"}. Executing controller action with signature System.Threading.Tasks.Task`1[Microsoft.AspNetCore.Mvc.IActionResult] GetAllTransacaoAsync(TipoTransacao, FinançasPessoaisWebAPI.Api.Models.PaginasParams) on controller FinançasPessoaisWebAPI.Api.Controllers.TransacaoController (FinançasPessoaisWebAPI.Api).
2024-06-17 11:57:38.890 -03:00 [INF] Executed DbCommand (1ms) [Parameters=[@__userId_0='1'], CommandType='"Text"', CommandTimeout='30']
SELECT COUNT(*)
FROM [Transacaos] AS [t]
LEFT JOIN [Categorias] AS [c] ON [t].[CategoriaId] = [c].[Id]
WHERE [c].[tipoTransacao] = N'Receita' AND [t].[UsuarioId] = @__userId_0
2024-06-17 11:57:38.894 -03:00 [INF] Executed DbCommand (1ms) [Parameters=[@__userId_0='1', @__p_1='0', @__p_2='50'], CommandType='"Text"', CommandTimeout='30']
SELECT [t0].[Id], [t0].[CategoriaId], [t0].[ContaId], [t0].[Data], [t0].[Descricao], [t0].[Recorrencia], [t0].[RecorrenciaDataLimite], [t0].[RecorrenciaModo], [t0].[RecorrenciaNVezes], [t0].[UsuarioId], [t0].[Valor], [t0].[Id0], [t0].[categoriaDespesa], [t0].[categoriaReceita], [t0].[tipoTransacao], [c0].[Id], [c0].[tipoConta], [u].[Id], [u].[Admin], [u].[Email], [u].[Nome], [u].[SenhaHash], [u].[SenhaNormal]
FROM (
    SELECT [t].[Id], [t].[CategoriaId], [t].[ContaId], [t].[Data], [t].[Descricao], [t].[Recorrencia], [t].[RecorrenciaDataLimite], [t].[RecorrenciaModo], [t].[RecorrenciaNVezes], [t].[UsuarioId], [t].[Valor], [c].[Id] AS [Id0], [c].[categoriaDespesa], [c].[categoriaReceita], [c].[tipoTransacao]
    FROM [Transacaos] AS [t]
    LEFT JOIN [Categorias] AS [c] ON [t].[CategoriaId] = [c].[Id]
    WHERE [c].[tipoTransacao] = N'Receita' AND [t].[UsuarioId] = @__userId_0
    ORDER BY [t].[Data] DESC
    OFFSET @__p_1 ROWS FETCH NEXT @__p_2 ROWS ONLY
) AS [t0]
LEFT JOIN [Contas] AS [c0] ON [t0].[ContaId] = [c0].[Id]
INNER JOIN [Usuarios] AS [u] ON [t0].[UsuarioId] = [u].[Id]
ORDER BY [t0].[Data] DESC
2024-06-17 11:57:38.897 -03:00 [INF] Executing OkObjectResult, writing value of type 'FinançasPessoaisWebAPI.Domain.Paginacao.Paginas`1[[FinançasPessoaisWebAPI.Application.DTOs.Transacao.TransacaoGetAllReceita, FinançasPessoaisWebAPI.Application, Version=1.0.0.0, Culture=neutral, PublicKeyToken=null]]'.
2024-06-17 11:57:38.898 -03:00 [INF] Executed action FinançasPessoaisWebAPI.Api.Controllers.TransacaoController.GetAllTransacaoAsync (FinançasPessoaisWebAPI.Api) in 11.7ms
2024-06-17 11:57:38.900 -03:00 [INF] Executed endpoint 'FinançasPessoaisWebAPI.Api.Controllers.TransacaoController.GetAllTransacaoAsync (FinançasPessoaisWebAPI.Api)'
2024-06-17 11:57:38.901 -03:00 [INF] Request finished HTTP/1.1 GET http://localhost:5299/Receita?NumerodaPagina=1&Quantidade=50 - 200 null application/json; charset=utf-8 19.6273ms
2024-06-17 11:57:39.080 -03:00 [INF] Request starting HTTP/1.1 OPTIONS http://localhost:5299/Receita?NumerodaPagina=2&Quantidade=50 - null null
2024-06-17 11:57:39.083 -03:00 [INF] CORS policy execution successful.
2024-06-17 11:57:39.084 -03:00 [INF] Request finished HTTP/1.1 OPTIONS http://localhost:5299/Receita?NumerodaPagina=2&Quantidade=50 - 204 null null 3.7761ms
2024-06-17 11:57:39.086 -03:00 [INF] Request starting HTTP/1.1 GET http://localhost:5299/Receita?NumerodaPagina=2&Quantidade=50 - null null
2024-06-17 11:57:39.088 -03:00 [INF] CORS policy execution successful.
2024-06-17 11:57:39.090 -03:00 [INF] Executing endpoint 'FinançasPessoaisWebAPI.Api.Controllers.TransacaoController.GetAllTransacaoAsync (FinançasPessoaisWebAPI.Api)'
2024-06-17 11:57:39.091 -03:00 [INF] Route matched with {action = "GetAllTransacao", controller = "Transacao"}. Executing controller action with signature System.Threading.Tasks.Task`1[Microsoft.AspNetCore.Mvc.IActionResult] GetAllTransacaoAsync(TipoTransacao, FinançasPessoaisWebAPI.Api.Models.PaginasParams) on controller FinançasPessoaisWebAPI.Api.Controllers.TransacaoController (FinançasPessoaisWebAPI.Api).
2024-06-17 11:57:39.096 -03:00 [INF] Executed DbCommand (1ms) [Parameters=[@__userId_0='1'], CommandType='"Text"', CommandTimeout='30']
SELECT COUNT(*)
FROM [Transacaos] AS [t]
LEFT JOIN [Categorias] AS [c] ON [t].[CategoriaId] = [c].[Id]
WHERE [c].[tipoTransacao] = N'Receita' AND [t].[UsuarioId] = @__userId_0
2024-06-17 11:57:39.102 -03:00 [INF] Executed DbCommand (1ms) [Parameters=[@__userId_0='1', @__p_1='50'], CommandType='"Text"', CommandTimeout='30']
SELECT [t0].[Id], [t0].[CategoriaId], [t0].[ContaId], [t0].[Data], [t0].[Descricao], [t0].[Recorrencia], [t0].[RecorrenciaDataLimite], [t0].[RecorrenciaModo], [t0].[RecorrenciaNVezes], [t0].[UsuarioId], [t0].[Valor], [t0].[Id0], [t0].[categoriaDespesa], [t0].[categoriaReceita], [t0].[tipoTransacao], [c0].[Id], [c0].[tipoConta], [u].[Id], [u].[Admin], [u].[Email], [u].[Nome], [u].[SenhaHash], [u].[SenhaNormal]
FROM (
    SELECT [t].[Id], [t].[CategoriaId], [t].[ContaId], [t].[Data], [t].[Descricao], [t].[Recorrencia], [t].[RecorrenciaDataLimite], [t].[RecorrenciaModo], [t].[RecorrenciaNVezes], [t].[UsuarioId], [t].[Valor], [c].[Id] AS [Id0], [c].[categoriaDespesa], [c].[categoriaReceita], [c].[tipoTransacao]
    FROM [Transacaos] AS [t]
    LEFT JOIN [Categorias] AS [c] ON [t].[CategoriaId] = [c].[Id]
    WHERE [c].[tipoTransacao] = N'Receita' AND [t].[UsuarioId] = @__userId_0
    ORDER BY [t].[Data] DESC
    OFFSET @__p_1 ROWS FETCH NEXT @__p_1 ROWS ONLY
) AS [t0]
LEFT JOIN [Contas] AS [c0] ON [t0].[ContaId] = [c0].[Id]
INNER JOIN [Usuarios] AS [u] ON [t0].[UsuarioId] = [u].[Id]
ORDER BY [t0].[Data] DESC
2024-06-17 11:57:39.104 -03:00 [INF] Executing OkObjectResult, writing value of type 'FinançasPessoaisWebAPI.Domain.Paginacao.Paginas`1[[FinançasPessoaisWebAPI.Application.DTOs.Transacao.TransacaoGetAllReceita, FinançasPessoaisWebAPI.Application, Version=1.0.0.0, Culture=neutral, PublicKeyToken=null]]'.
2024-06-17 11:57:39.105 -03:00 [INF] Executed action FinançasPessoaisWebAPI.Api.Controllers.TransacaoController.GetAllTransacaoAsync (FinançasPessoaisWebAPI.Api) in 12.339ms
2024-06-17 11:57:39.106 -03:00 [INF] Executed endpoint 'FinançasPessoaisWebAPI.Api.Controllers.TransacaoController.GetAllTransacaoAsync (FinançasPessoaisWebAPI.Api)'
2024-06-17 11:57:39.107 -03:00 [INF] Request finished HTTP/1.1 GET http://localhost:5299/Receita?NumerodaPagina=2&Quantidade=50 - 200 null application/json; charset=utf-8 20.9353ms
2024-06-17 11:57:39.112 -03:00 [INF] Request starting HTTP/1.1 OPTIONS http://localhost:5299/Despesa?NumerodaPagina=1&Quantidade=50 - null null
2024-06-17 11:57:39.113 -03:00 [INF] CORS policy execution successful.
2024-06-17 11:57:39.114 -03:00 [INF] Request finished HTTP/1.1 OPTIONS http://localhost:5299/Despesa?NumerodaPagina=1&Quantidade=50 - 204 null null 2.7449ms
2024-06-17 11:57:39.117 -03:00 [INF] Request starting HTTP/1.1 GET http://localhost:5299/Despesa?NumerodaPagina=1&Quantidade=50 - null null
2024-06-17 11:57:39.118 -03:00 [INF] CORS policy execution successful.
2024-06-17 11:57:39.120 -03:00 [INF] Executing endpoint 'FinançasPessoaisWebAPI.Api.Controllers.TransacaoController.GetAllTransacaoAsync (FinançasPessoaisWebAPI.Api)'
2024-06-17 11:57:39.121 -03:00 [INF] Route matched with {action = "GetAllTransacao", controller = "Transacao"}. Executing controller action with signature System.Threading.Tasks.Task`1[Microsoft.AspNetCore.Mvc.IActionResult] GetAllTransacaoAsync(TipoTransacao, FinançasPessoaisWebAPI.Api.Models.PaginasParams) on controller FinançasPessoaisWebAPI.Api.Controllers.TransacaoController (FinançasPessoaisWebAPI.Api).
2024-06-17 11:57:39.125 -03:00 [INF] Executed DbCommand (1ms) [Parameters=[@__userId_0='1'], CommandType='"Text"', CommandTimeout='30']
SELECT COUNT(*)
FROM [Transacaos] AS [t]
LEFT JOIN [Categorias] AS [c] ON [t].[CategoriaId] = [c].[Id]
WHERE [c].[tipoTransacao] = N'Despesa' AND [t].[UsuarioId] = @__userId_0
2024-06-17 11:57:39.130 -03:00 [INF] Executed DbCommand (1ms) [Parameters=[@__userId_0='1', @__p_1='0', @__p_2='50'], CommandType='"Text"', CommandTimeout='30']
SELECT [t0].[Id], [t0].[CategoriaId], [t0].[ContaId], [t0].[Data], [t0].[Descricao], [t0].[Recorrencia], [t0].[RecorrenciaDataLimite], [t0].[RecorrenciaModo], [t0].[RecorrenciaNVezes], [t0].[UsuarioId], [t0].[Valor], [t0].[Id0], [t0].[categoriaDespesa], [t0].[categoriaReceita], [t0].[tipoTransacao], [c0].[Id], [c0].[tipoConta], [u].[Id], [u].[Admin], [u].[Email], [u].[Nome], [u].[SenhaHash], [u].[SenhaNormal]
FROM (
    SELECT [t].[Id], [t].[CategoriaId], [t].[ContaId], [t].[Data], [t].[Descricao], [t].[Recorrencia], [t].[RecorrenciaDataLimite], [t].[RecorrenciaModo], [t].[RecorrenciaNVezes], [t].[UsuarioId], [t].[Valor], [c].[Id] AS [Id0], [c].[categoriaDespesa], [c].[categoriaReceita], [c].[tipoTransacao]
    FROM [Transacaos] AS [t]
    LEFT JOIN [Categorias] AS [c] ON [t].[CategoriaId] = [c].[Id]
    WHERE [c].[tipoTransacao] = N'Despesa' AND [t].[UsuarioId] = @__userId_0
    ORDER BY [t].[Data] DESC
    OFFSET @__p_1 ROWS FETCH NEXT @__p_2 ROWS ONLY
) AS [t0]
LEFT JOIN [Contas] AS [c0] ON [t0].[ContaId] = [c0].[Id]
INNER JOIN [Usuarios] AS [u] ON [t0].[UsuarioId] = [u].[Id]
ORDER BY [t0].[Data] DESC
2024-06-17 11:57:39.132 -03:00 [INF] Executing OkObjectResult, writing value of type 'FinançasPessoaisWebAPI.Domain.Paginacao.Paginas`1[[FinançasPessoaisWebAPI.Application.DTOs.Transacao.TransacaoGetAllDespesa, FinançasPessoaisWebAPI.Application, Version=1.0.0.0, Culture=neutral, PublicKeyToken=null]]'.
2024-06-17 11:57:39.133 -03:00 [INF] Executed action FinançasPessoaisWebAPI.Api.Controllers.TransacaoController.GetAllTransacaoAsync (FinançasPessoaisWebAPI.Api) in 10.9191ms
2024-06-17 11:57:39.134 -03:00 [INF] Executed endpoint 'FinançasPessoaisWebAPI.Api.Controllers.TransacaoController.GetAllTransacaoAsync (FinançasPessoaisWebAPI.Api)'
2024-06-17 11:57:39.136 -03:00 [INF] Request finished HTTP/1.1 GET http://localhost:5299/Despesa?NumerodaPagina=1&Quantidade=50 - 200 null application/json; charset=utf-8 18.9052ms
2024-06-17 11:57:48.916 -03:00 [INF] Request starting HTTP/1.1 OPTIONS http://localhost:5299/Receita?NumerodaPagina=1&Quantidade=50 - null null
2024-06-17 11:57:48.918 -03:00 [INF] CORS policy execution successful.
2024-06-17 11:57:48.918 -03:00 [INF] Request finished HTTP/1.1 OPTIONS http://localhost:5299/Receita?NumerodaPagina=1&Quantidade=50 - 204 null null 2.8404ms
2024-06-17 11:57:48.921 -03:00 [INF] Request starting HTTP/1.1 GET http://localhost:5299/Receita?NumerodaPagina=1&Quantidade=50 - null null
2024-06-17 11:57:48.922 -03:00 [INF] CORS policy execution successful.
2024-06-17 11:57:48.923 -03:00 [INF] Executing endpoint 'FinançasPessoaisWebAPI.Api.Controllers.TransacaoController.GetAllTransacaoAsync (FinançasPessoaisWebAPI.Api)'
2024-06-17 11:57:48.924 -03:00 [INF] Route matched with {action = "GetAllTransacao", controller = "Transacao"}. Executing controller action with signature System.Threading.Tasks.Task`1[Microsoft.AspNetCore.Mvc.IActionResult] GetAllTransacaoAsync(TipoTransacao, FinançasPessoaisWebAPI.Api.Models.PaginasParams) on controller FinançasPessoaisWebAPI.Api.Controllers.TransacaoController (FinançasPessoaisWebAPI.Api).
2024-06-17 11:57:48.928 -03:00 [INF] Executed DbCommand (1ms) [Parameters=[@__userId_0='1'], CommandType='"Text"', CommandTimeout='30']
SELECT COUNT(*)
FROM [Transacaos] AS [t]
LEFT JOIN [Categorias] AS [c] ON [t].[CategoriaId] = [c].[Id]
WHERE [c].[tipoTransacao] = N'Receita' AND [t].[UsuarioId] = @__userId_0
2024-06-17 11:57:48.931 -03:00 [INF] Executed DbCommand (1ms) [Parameters=[@__userId_0='1', @__p_1='0', @__p_2='50'], CommandType='"Text"', CommandTimeout='30']
SELECT [t0].[Id], [t0].[CategoriaId], [t0].[ContaId], [t0].[Data], [t0].[Descricao], [t0].[Recorrencia], [t0].[RecorrenciaDataLimite], [t0].[RecorrenciaModo], [t0].[RecorrenciaNVezes], [t0].[UsuarioId], [t0].[Valor], [t0].[Id0], [t0].[categoriaDespesa], [t0].[categoriaReceita], [t0].[tipoTransacao], [c0].[Id], [c0].[tipoConta], [u].[Id], [u].[Admin], [u].[Email], [u].[Nome], [u].[SenhaHash], [u].[SenhaNormal]
FROM (
    SELECT [t].[Id], [t].[CategoriaId], [t].[ContaId], [t].[Data], [t].[Descricao], [t].[Recorrencia], [t].[RecorrenciaDataLimite], [t].[RecorrenciaModo], [t].[RecorrenciaNVezes], [t].[UsuarioId], [t].[Valor], [c].[Id] AS [Id0], [c].[categoriaDespesa], [c].[categoriaReceita], [c].[tipoTransacao]
    FROM [Transacaos] AS [t]
    LEFT JOIN [Categorias] AS [c] ON [t].[CategoriaId] = [c].[Id]
    WHERE [c].[tipoTransacao] = N'Receita' AND [t].[UsuarioId] = @__userId_0
    ORDER BY [t].[Data] DESC
    OFFSET @__p_1 ROWS FETCH NEXT @__p_2 ROWS ONLY
) AS [t0]
LEFT JOIN [Contas] AS [c0] ON [t0].[ContaId] = [c0].[Id]
INNER JOIN [Usuarios] AS [u] ON [t0].[UsuarioId] = [u].[Id]
ORDER BY [t0].[Data] DESC
2024-06-17 11:57:48.934 -03:00 [INF] Executing OkObjectResult, writing value of type 'FinançasPessoaisWebAPI.Domain.Paginacao.Paginas`1[[FinançasPessoaisWebAPI.Application.DTOs.Transacao.TransacaoGetAllReceita, FinançasPessoaisWebAPI.Application, Version=1.0.0.0, Culture=neutral, PublicKeyToken=null]]'.
2024-06-17 11:57:48.935 -03:00 [INF] Executed action FinançasPessoaisWebAPI.Api.Controllers.TransacaoController.GetAllTransacaoAsync (FinançasPessoaisWebAPI.Api) in 9.5709ms
2024-06-17 11:57:48.936 -03:00 [INF] Executed endpoint 'FinançasPessoaisWebAPI.Api.Controllers.TransacaoController.GetAllTransacaoAsync (FinançasPessoaisWebAPI.Api)'
2024-06-17 11:57:48.937 -03:00 [INF] Request finished HTTP/1.1 GET http://localhost:5299/Receita?NumerodaPagina=1&Quantidade=50 - 200 null application/json; charset=utf-8 16.2493ms
2024-06-17 11:57:49.155 -03:00 [INF] Request starting HTTP/1.1 OPTIONS http://localhost:5299/Receita?NumerodaPagina=2&Quantidade=50 - null null
2024-06-17 11:57:49.157 -03:00 [INF] CORS policy execution successful.
2024-06-17 11:57:49.158 -03:00 [INF] Request finished HTTP/1.1 OPTIONS http://localhost:5299/Receita?NumerodaPagina=2&Quantidade=50 - 204 null null 3.3958ms
2024-06-17 11:57:49.161 -03:00 [INF] Request starting HTTP/1.1 GET http://localhost:5299/Receita?NumerodaPagina=2&Quantidade=50 - null null
2024-06-17 11:57:49.163 -03:00 [INF] CORS policy execution successful.
2024-06-17 11:57:49.164 -03:00 [INF] Executing endpoint 'FinançasPessoaisWebAPI.Api.Controllers.TransacaoController.GetAllTransacaoAsync (FinançasPessoaisWebAPI.Api)'
2024-06-17 11:57:49.165 -03:00 [INF] Route matched with {action = "GetAllTransacao", controller = "Transacao"}. Executing controller action with signature System.Threading.Tasks.Task`1[Microsoft.AspNetCore.Mvc.IActionResult] GetAllTransacaoAsync(TipoTransacao, FinançasPessoaisWebAPI.Api.Models.PaginasParams) on controller FinançasPessoaisWebAPI.Api.Controllers.TransacaoController (FinançasPessoaisWebAPI.Api).
2024-06-17 11:57:49.170 -03:00 [INF] Executed DbCommand (2ms) [Parameters=[@__userId_0='1'], CommandType='"Text"', CommandTimeout='30']
SELECT COUNT(*)
FROM [Transacaos] AS [t]
LEFT JOIN [Categorias] AS [c] ON [t].[CategoriaId] = [c].[Id]
WHERE [c].[tipoTransacao] = N'Receita' AND [t].[UsuarioId] = @__userId_0
2024-06-17 11:57:49.180 -03:00 [INF] Executed DbCommand (1ms) [Parameters=[@__userId_0='1', @__p_1='50'], CommandType='"Text"', CommandTimeout='30']
SELECT [t0].[Id], [t0].[CategoriaId], [t0].[ContaId], [t0].[Data], [t0].[Descricao], [t0].[Recorrencia], [t0].[RecorrenciaDataLimite], [t0].[RecorrenciaModo], [t0].[RecorrenciaNVezes], [t0].[UsuarioId], [t0].[Valor], [t0].[Id0], [t0].[categoriaDespesa], [t0].[categoriaReceita], [t0].[tipoTransacao], [c0].[Id], [c0].[tipoConta], [u].[Id], [u].[Admin], [u].[Email], [u].[Nome], [u].[SenhaHash], [u].[SenhaNormal]
FROM (
    SELECT [t].[Id], [t].[CategoriaId], [t].[ContaId], [t].[Data], [t].[Descricao], [t].[Recorrencia], [t].[RecorrenciaDataLimite], [t].[RecorrenciaModo], [t].[RecorrenciaNVezes], [t].[UsuarioId], [t].[Valor], [c].[Id] AS [Id0], [c].[categoriaDespesa], [c].[categoriaReceita], [c].[tipoTransacao]
    FROM [Transacaos] AS [t]
    LEFT JOIN [Categorias] AS [c] ON [t].[CategoriaId] = [c].[Id]
    WHERE [c].[tipoTransacao] = N'Receita' AND [t].[UsuarioId] = @__userId_0
    ORDER BY [t].[Data] DESC
    OFFSET @__p_1 ROWS FETCH NEXT @__p_1 ROWS ONLY
) AS [t0]
LEFT JOIN [Contas] AS [c0] ON [t0].[ContaId] = [c0].[Id]
INNER JOIN [Usuarios] AS [u] ON [t0].[UsuarioId] = [u].[Id]
ORDER BY [t0].[Data] DESC
2024-06-17 11:57:49.182 -03:00 [INF] Executing OkObjectResult, writing value of type 'FinançasPessoaisWebAPI.Domain.Paginacao.Paginas`1[[FinançasPessoaisWebAPI.Application.DTOs.Transacao.TransacaoGetAllReceita, FinançasPessoaisWebAPI.Application, Version=1.0.0.0, Culture=neutral, PublicKeyToken=null]]'.
2024-06-17 11:57:49.184 -03:00 [INF] Executed action FinançasPessoaisWebAPI.Api.Controllers.TransacaoController.GetAllTransacaoAsync (FinançasPessoaisWebAPI.Api) in 17.4325ms
2024-06-17 11:57:49.185 -03:00 [INF] Executed endpoint 'FinançasPessoaisWebAPI.Api.Controllers.TransacaoController.GetAllTransacaoAsync (FinançasPessoaisWebAPI.Api)'
2024-06-17 11:57:49.186 -03:00 [INF] Request finished HTTP/1.1 GET http://localhost:5299/Receita?NumerodaPagina=2&Quantidade=50 - 200 null application/json; charset=utf-8 24.8064ms
2024-06-17 11:57:49.190 -03:00 [INF] Request starting HTTP/1.1 OPTIONS http://localhost:5299/Despesa?NumerodaPagina=1&Quantidade=50 - null null
2024-06-17 11:57:49.192 -03:00 [INF] CORS policy execution successful.
2024-06-17 11:57:49.193 -03:00 [INF] Request finished HTTP/1.1 OPTIONS http://localhost:5299/Despesa?NumerodaPagina=1&Quantidade=50 - 204 null null 3.251ms
2024-06-17 11:57:49.199 -03:00 [INF] Request starting HTTP/1.1 GET http://localhost:5299/Despesa?NumerodaPagina=1&Quantidade=50 - null null
2024-06-17 11:57:49.201 -03:00 [INF] CORS policy execution successful.
2024-06-17 11:57:49.202 -03:00 [INF] Executing endpoint 'FinançasPessoaisWebAPI.Api.Controllers.TransacaoController.GetAllTransacaoAsync (FinançasPessoaisWebAPI.Api)'
2024-06-17 11:57:49.203 -03:00 [INF] Route matched with {action = "GetAllTransacao", controller = "Transacao"}. Executing controller action with signature System.Threading.Tasks.Task`1[Microsoft.AspNetCore.Mvc.IActionResult] GetAllTransacaoAsync(TipoTransacao, FinançasPessoaisWebAPI.Api.Models.PaginasParams) on controller FinançasPessoaisWebAPI.Api.Controllers.TransacaoController (FinançasPessoaisWebAPI.Api).
2024-06-17 11:57:49.207 -03:00 [INF] Executed DbCommand (1ms) [Parameters=[@__userId_0='1'], CommandType='"Text"', CommandTimeout='30']
SELECT COUNT(*)
FROM [Transacaos] AS [t]
LEFT JOIN [Categorias] AS [c] ON [t].[CategoriaId] = [c].[Id]
WHERE [c].[tipoTransacao] = N'Despesa' AND [t].[UsuarioId] = @__userId_0
2024-06-17 11:57:49.210 -03:00 [INF] Executed DbCommand (0ms) [Parameters=[@__userId_0='1', @__p_1='0', @__p_2='50'], CommandType='"Text"', CommandTimeout='30']
SELECT [t0].[Id], [t0].[CategoriaId], [t0].[ContaId], [t0].[Data], [t0].[Descricao], [t0].[Recorrencia], [t0].[RecorrenciaDataLimite], [t0].[RecorrenciaModo], [t0].[RecorrenciaNVezes], [t0].[UsuarioId], [t0].[Valor], [t0].[Id0], [t0].[categoriaDespesa], [t0].[categoriaReceita], [t0].[tipoTransacao], [c0].[Id], [c0].[tipoConta], [u].[Id], [u].[Admin], [u].[Email], [u].[Nome], [u].[SenhaHash], [u].[SenhaNormal]
FROM (
    SELECT [t].[Id], [t].[CategoriaId], [t].[ContaId], [t].[Data], [t].[Descricao], [t].[Recorrencia], [t].[RecorrenciaDataLimite], [t].[RecorrenciaModo], [t].[RecorrenciaNVezes], [t].[UsuarioId], [t].[Valor], [c].[Id] AS [Id0], [c].[categoriaDespesa], [c].[categoriaReceita], [c].[tipoTransacao]
    FROM [Transacaos] AS [t]
    LEFT JOIN [Categorias] AS [c] ON [t].[CategoriaId] = [c].[Id]
    WHERE [c].[tipoTransacao] = N'Despesa' AND [t].[UsuarioId] = @__userId_0
    ORDER BY [t].[Data] DESC
    OFFSET @__p_1 ROWS FETCH NEXT @__p_2 ROWS ONLY
) AS [t0]
LEFT JOIN [Contas] AS [c0] ON [t0].[ContaId] = [c0].[Id]
INNER JOIN [Usuarios] AS [u] ON [t0].[UsuarioId] = [u].[Id]
ORDER BY [t0].[Data] DESC
2024-06-17 11:57:49.213 -03:00 [INF] Executing OkObjectResult, writing value of type 'FinançasPessoaisWebAPI.Domain.Paginacao.Paginas`1[[FinançasPessoaisWebAPI.Application.DTOs.Transacao.TransacaoGetAllDespesa, FinançasPessoaisWebAPI.Application, Version=1.0.0.0, Culture=neutral, PublicKeyToken=null]]'.
2024-06-17 11:57:49.214 -03:00 [INF] Executed action FinançasPessoaisWebAPI.Api.Controllers.TransacaoController.GetAllTransacaoAsync (FinançasPessoaisWebAPI.Api) in 10.0288ms
2024-06-17 11:57:49.215 -03:00 [INF] Executed endpoint 'FinançasPessoaisWebAPI.Api.Controllers.TransacaoController.GetAllTransacaoAsync (FinançasPessoaisWebAPI.Api)'
2024-06-17 11:57:49.216 -03:00 [INF] Request finished HTTP/1.1 GET http://localhost:5299/Despesa?NumerodaPagina=1&Quantidade=50 - 200 null application/json; charset=utf-8 17.4157ms
2024-06-17 11:57:56.955 -03:00 [INF] Request starting HTTP/1.1 OPTIONS http://localhost:5299/Receita?NumerodaPagina=1&Quantidade=50 - null null
2024-06-17 11:57:56.956 -03:00 [INF] CORS policy execution successful.
2024-06-17 11:57:56.957 -03:00 [INF] Request finished HTTP/1.1 OPTIONS http://localhost:5299/Receita?NumerodaPagina=1&Quantidade=50 - 204 null null 2.0576ms
2024-06-17 11:57:56.959 -03:00 [INF] Request starting HTTP/1.1 GET http://localhost:5299/Receita?NumerodaPagina=1&Quantidade=50 - null null
2024-06-17 11:57:56.960 -03:00 [INF] CORS policy execution successful.
2024-06-17 11:57:56.961 -03:00 [INF] Executing endpoint 'FinançasPessoaisWebAPI.Api.Controllers.TransacaoController.GetAllTransacaoAsync (FinançasPessoaisWebAPI.Api)'
2024-06-17 11:57:56.961 -03:00 [INF] Route matched with {action = "GetAllTransacao", controller = "Transacao"}. Executing controller action with signature System.Threading.Tasks.Task`1[Microsoft.AspNetCore.Mvc.IActionResult] GetAllTransacaoAsync(TipoTransacao, FinançasPessoaisWebAPI.Api.Models.PaginasParams) on controller FinançasPessoaisWebAPI.Api.Controllers.TransacaoController (FinançasPessoaisWebAPI.Api).
2024-06-17 11:57:56.965 -03:00 [INF] Executed DbCommand (1ms) [Parameters=[@__userId_0='1'], CommandType='"Text"', CommandTimeout='30']
SELECT COUNT(*)
FROM [Transacaos] AS [t]
LEFT JOIN [Categorias] AS [c] ON [t].[CategoriaId] = [c].[Id]
WHERE [c].[tipoTransacao] = N'Receita' AND [t].[UsuarioId] = @__userId_0
2024-06-17 11:57:56.968 -03:00 [INF] Executed DbCommand (1ms) [Parameters=[@__userId_0='1', @__p_1='0', @__p_2='50'], CommandType='"Text"', CommandTimeout='30']
SELECT [t0].[Id], [t0].[CategoriaId], [t0].[ContaId], [t0].[Data], [t0].[Descricao], [t0].[Recorrencia], [t0].[RecorrenciaDataLimite], [t0].[RecorrenciaModo], [t0].[RecorrenciaNVezes], [t0].[UsuarioId], [t0].[Valor], [t0].[Id0], [t0].[categoriaDespesa], [t0].[categoriaReceita], [t0].[tipoTransacao], [c0].[Id], [c0].[tipoConta], [u].[Id], [u].[Admin], [u].[Email], [u].[Nome], [u].[SenhaHash], [u].[SenhaNormal]
FROM (
    SELECT [t].[Id], [t].[CategoriaId], [t].[ContaId], [t].[Data], [t].[Descricao], [t].[Recorrencia], [t].[RecorrenciaDataLimite], [t].[RecorrenciaModo], [t].[RecorrenciaNVezes], [t].[UsuarioId], [t].[Valor], [c].[Id] AS [Id0], [c].[categoriaDespesa], [c].[categoriaReceita], [c].[tipoTransacao]
    FROM [Transacaos] AS [t]
    LEFT JOIN [Categorias] AS [c] ON [t].[CategoriaId] = [c].[Id]
    WHERE [c].[tipoTransacao] = N'Receita' AND [t].[UsuarioId] = @__userId_0
    ORDER BY [t].[Data] DESC
    OFFSET @__p_1 ROWS FETCH NEXT @__p_2 ROWS ONLY
) AS [t0]
LEFT JOIN [Contas] AS [c0] ON [t0].[ContaId] = [c0].[Id]
INNER JOIN [Usuarios] AS [u] ON [t0].[UsuarioId] = [u].[Id]
ORDER BY [t0].[Data] DESC
2024-06-17 11:57:56.970 -03:00 [INF] Executing OkObjectResult, writing value of type 'FinançasPessoaisWebAPI.Domain.Paginacao.Paginas`1[[FinançasPessoaisWebAPI.Application.DTOs.Transacao.TransacaoGetAllReceita, FinançasPessoaisWebAPI.Application, Version=1.0.0.0, Culture=neutral, PublicKeyToken=null]]'.
2024-06-17 11:57:56.971 -03:00 [INF] Executed action FinançasPessoaisWebAPI.Api.Controllers.TransacaoController.GetAllTransacaoAsync (FinançasPessoaisWebAPI.Api) in 8.7916ms
2024-06-17 11:57:56.972 -03:00 [INF] Executed endpoint 'FinançasPessoaisWebAPI.Api.Controllers.TransacaoController.GetAllTransacaoAsync (FinançasPessoaisWebAPI.Api)'
2024-06-17 11:57:56.973 -03:00 [INF] Request finished HTTP/1.1 GET http://localhost:5299/Receita?NumerodaPagina=1&Quantidade=50 - 200 null application/json; charset=utf-8 14.6292ms
2024-06-17 11:57:57.089 -03:00 [INF] Request starting HTTP/1.1 OPTIONS http://localhost:5299/Receita?NumerodaPagina=2&Quantidade=50 - null null
2024-06-17 11:57:57.091 -03:00 [INF] CORS policy execution successful.
2024-06-17 11:57:57.092 -03:00 [INF] Request finished HTTP/1.1 OPTIONS http://localhost:5299/Receita?NumerodaPagina=2&Quantidade=50 - 204 null null 2.8787ms
2024-06-17 11:57:57.094 -03:00 [INF] Request starting HTTP/1.1 GET http://localhost:5299/Receita?NumerodaPagina=2&Quantidade=50 - null null
2024-06-17 11:57:57.096 -03:00 [INF] CORS policy execution successful.
2024-06-17 11:57:57.097 -03:00 [INF] Executing endpoint 'FinançasPessoaisWebAPI.Api.Controllers.TransacaoController.GetAllTransacaoAsync (FinançasPessoaisWebAPI.Api)'
2024-06-17 11:57:57.098 -03:00 [INF] Route matched with {action = "GetAllTransacao", controller = "Transacao"}. Executing controller action with signature System.Threading.Tasks.Task`1[Microsoft.AspNetCore.Mvc.IActionResult] GetAllTransacaoAsync(TipoTransacao, FinançasPessoaisWebAPI.Api.Models.PaginasParams) on controller FinançasPessoaisWebAPI.Api.Controllers.TransacaoController (FinançasPessoaisWebAPI.Api).
2024-06-17 11:57:57.102 -03:00 [INF] Executed DbCommand (1ms) [Parameters=[@__userId_0='1'], CommandType='"Text"', CommandTimeout='30']
SELECT COUNT(*)
FROM [Transacaos] AS [t]
LEFT JOIN [Categorias] AS [c] ON [t].[CategoriaId] = [c].[Id]
WHERE [c].[tipoTransacao] = N'Receita' AND [t].[UsuarioId] = @__userId_0
2024-06-17 11:57:57.105 -03:00 [INF] Executed DbCommand (1ms) [Parameters=[@__userId_0='1', @__p_1='50'], CommandType='"Text"', CommandTimeout='30']
SELECT [t0].[Id], [t0].[CategoriaId], [t0].[ContaId], [t0].[Data], [t0].[Descricao], [t0].[Recorrencia], [t0].[RecorrenciaDataLimite], [t0].[RecorrenciaModo], [t0].[RecorrenciaNVezes], [t0].[UsuarioId], [t0].[Valor], [t0].[Id0], [t0].[categoriaDespesa], [t0].[categoriaReceita], [t0].[tipoTransacao], [c0].[Id], [c0].[tipoConta], [u].[Id], [u].[Admin], [u].[Email], [u].[Nome], [u].[SenhaHash], [u].[SenhaNormal]
FROM (
    SELECT [t].[Id], [t].[CategoriaId], [t].[ContaId], [t].[Data], [t].[Descricao], [t].[Recorrencia], [t].[RecorrenciaDataLimite], [t].[RecorrenciaModo], [t].[RecorrenciaNVezes], [t].[UsuarioId], [t].[Valor], [c].[Id] AS [Id0], [c].[categoriaDespesa], [c].[categoriaReceita], [c].[tipoTransacao]
    FROM [Transacaos] AS [t]
    LEFT JOIN [Categorias] AS [c] ON [t].[CategoriaId] = [c].[Id]
    WHERE [c].[tipoTransacao] = N'Receita' AND [t].[UsuarioId] = @__userId_0
    ORDER BY [t].[Data] DESC
    OFFSET @__p_1 ROWS FETCH NEXT @__p_1 ROWS ONLY
) AS [t0]
LEFT JOIN [Contas] AS [c0] ON [t0].[ContaId] = [c0].[Id]
INNER JOIN [Usuarios] AS [u] ON [t0].[UsuarioId] = [u].[Id]
ORDER BY [t0].[Data] DESC
2024-06-17 11:57:57.107 -03:00 [INF] Executing OkObjectResult, writing value of type 'FinançasPessoaisWebAPI.Domain.Paginacao.Paginas`1[[FinançasPessoaisWebAPI.Application.DTOs.Transacao.TransacaoGetAllReceita, FinançasPessoaisWebAPI.Application, Version=1.0.0.0, Culture=neutral, PublicKeyToken=null]]'.
2024-06-17 11:57:57.108 -03:00 [INF] Executed action FinançasPessoaisWebAPI.Api.Controllers.TransacaoController.GetAllTransacaoAsync (FinançasPessoaisWebAPI.Api) in 8.7142ms
2024-06-17 11:57:57.109 -03:00 [INF] Executed endpoint 'FinançasPessoaisWebAPI.Api.Controllers.TransacaoController.GetAllTransacaoAsync (FinançasPessoaisWebAPI.Api)'
2024-06-17 11:57:57.110 -03:00 [INF] Request finished HTTP/1.1 GET http://localhost:5299/Receita?NumerodaPagina=2&Quantidade=50 - 200 null application/json; charset=utf-8 15.6128ms
2024-06-17 11:57:57.113 -03:00 [INF] Request starting HTTP/1.1 OPTIONS http://localhost:5299/Despesa?NumerodaPagina=1&Quantidade=50 - null null
2024-06-17 11:57:57.114 -03:00 [INF] CORS policy execution successful.
2024-06-17 11:57:57.115 -03:00 [INF] Request finished HTTP/1.1 OPTIONS http://localhost:5299/Despesa?NumerodaPagina=1&Quantidade=50 - 204 null null 2.5929ms
2024-06-17 11:57:57.118 -03:00 [INF] Request starting HTTP/1.1 GET http://localhost:5299/Despesa?NumerodaPagina=1&Quantidade=50 - null null
2024-06-17 11:57:57.120 -03:00 [INF] CORS policy execution successful.
2024-06-17 11:57:57.121 -03:00 [INF] Executing endpoint 'FinançasPessoaisWebAPI.Api.Controllers.TransacaoController.GetAllTransacaoAsync (FinançasPessoaisWebAPI.Api)'
2024-06-17 11:57:57.122 -03:00 [INF] Route matched with {action = "GetAllTransacao", controller = "Transacao"}. Executing controller action with signature System.Threading.Tasks.Task`1[Microsoft.AspNetCore.Mvc.IActionResult] GetAllTransacaoAsync(TipoTransacao, FinançasPessoaisWebAPI.Api.Models.PaginasParams) on controller FinançasPessoaisWebAPI.Api.Controllers.TransacaoController (FinançasPessoaisWebAPI.Api).
2024-06-17 11:57:57.125 -03:00 [INF] Executed DbCommand (1ms) [Parameters=[@__userId_0='1'], CommandType='"Text"', CommandTimeout='30']
SELECT COUNT(*)
FROM [Transacaos] AS [t]
LEFT JOIN [Categorias] AS [c] ON [t].[CategoriaId] = [c].[Id]
WHERE [c].[tipoTransacao] = N'Despesa' AND [t].[UsuarioId] = @__userId_0
2024-06-17 11:57:57.128 -03:00 [INF] Executed DbCommand (1ms) [Parameters=[@__userId_0='1', @__p_1='0', @__p_2='50'], CommandType='"Text"', CommandTimeout='30']
SELECT [t0].[Id], [t0].[CategoriaId], [t0].[ContaId], [t0].[Data], [t0].[Descricao], [t0].[Recorrencia], [t0].[RecorrenciaDataLimite], [t0].[RecorrenciaModo], [t0].[RecorrenciaNVezes], [t0].[UsuarioId], [t0].[Valor], [t0].[Id0], [t0].[categoriaDespesa], [t0].[categoriaReceita], [t0].[tipoTransacao], [c0].[Id], [c0].[tipoConta], [u].[Id], [u].[Admin], [u].[Email], [u].[Nome], [u].[SenhaHash], [u].[SenhaNormal]
FROM (
    SELECT [t].[Id], [t].[CategoriaId], [t].[ContaId], [t].[Data], [t].[Descricao], [t].[Recorrencia], [t].[RecorrenciaDataLimite], [t].[RecorrenciaModo], [t].[RecorrenciaNVezes], [t].[UsuarioId], [t].[Valor], [c].[Id] AS [Id0], [c].[categoriaDespesa], [c].[categoriaReceita], [c].[tipoTransacao]
    FROM [Transacaos] AS [t]
    LEFT JOIN [Categorias] AS [c] ON [t].[CategoriaId] = [c].[Id]
    WHERE [c].[tipoTransacao] = N'Despesa' AND [t].[UsuarioId] = @__userId_0
    ORDER BY [t].[Data] DESC
    OFFSET @__p_1 ROWS FETCH NEXT @__p_2 ROWS ONLY
) AS [t0]
LEFT JOIN [Contas] AS [c0] ON [t0].[ContaId] = [c0].[Id]
INNER JOIN [Usuarios] AS [u] ON [t0].[UsuarioId] = [u].[Id]
ORDER BY [t0].[Data] DESC
2024-06-17 11:57:57.131 -03:00 [INF] Executing OkObjectResult, writing value of type 'FinançasPessoaisWebAPI.Domain.Paginacao.Paginas`1[[FinançasPessoaisWebAPI.Application.DTOs.Transacao.TransacaoGetAllDespesa, FinançasPessoaisWebAPI.Application, Version=1.0.0.0, Culture=neutral, PublicKeyToken=null]]'.
2024-06-17 11:57:57.132 -03:00 [INF] Executed action FinançasPessoaisWebAPI.Api.Controllers.TransacaoController.GetAllTransacaoAsync (FinançasPessoaisWebAPI.Api) in 9.1373ms
2024-06-17 11:57:57.133 -03:00 [INF] Executed endpoint 'FinançasPessoaisWebAPI.Api.Controllers.TransacaoController.GetAllTransacaoAsync (FinançasPessoaisWebAPI.Api)'
2024-06-17 11:57:57.134 -03:00 [INF] Request finished HTTP/1.1 GET http://localhost:5299/Despesa?NumerodaPagina=1&Quantidade=50 - 200 null application/json; charset=utf-8 16.4339ms
2024-06-17 11:57:59.384 -03:00 [INF] Request starting HTTP/1.1 GET http://localhost:5299/Receita?NumerodaPagina=1&Quantidade=50 - null null
2024-06-17 11:57:59.385 -03:00 [INF] CORS policy execution successful.
2024-06-17 11:57:59.386 -03:00 [INF] Executing endpoint 'FinançasPessoaisWebAPI.Api.Controllers.TransacaoController.GetAllTransacaoAsync (FinançasPessoaisWebAPI.Api)'
2024-06-17 11:57:59.387 -03:00 [INF] Route matched with {action = "GetAllTransacao", controller = "Transacao"}. Executing controller action with signature System.Threading.Tasks.Task`1[Microsoft.AspNetCore.Mvc.IActionResult] GetAllTransacaoAsync(TipoTransacao, FinançasPessoaisWebAPI.Api.Models.PaginasParams) on controller FinançasPessoaisWebAPI.Api.Controllers.TransacaoController (FinançasPessoaisWebAPI.Api).
2024-06-17 11:57:59.391 -03:00 [INF] Executed DbCommand (1ms) [Parameters=[@__userId_0='1'], CommandType='"Text"', CommandTimeout='30']
SELECT COUNT(*)
FROM [Transacaos] AS [t]
LEFT JOIN [Categorias] AS [c] ON [t].[CategoriaId] = [c].[Id]
WHERE [c].[tipoTransacao] = N'Receita' AND [t].[UsuarioId] = @__userId_0
2024-06-17 11:57:59.394 -03:00 [INF] Executed DbCommand (1ms) [Parameters=[@__userId_0='1', @__p_1='0', @__p_2='50'], CommandType='"Text"', CommandTimeout='30']
SELECT [t0].[Id], [t0].[CategoriaId], [t0].[ContaId], [t0].[Data], [t0].[Descricao], [t0].[Recorrencia], [t0].[RecorrenciaDataLimite], [t0].[RecorrenciaModo], [t0].[RecorrenciaNVezes], [t0].[UsuarioId], [t0].[Valor], [t0].[Id0], [t0].[categoriaDespesa], [t0].[categoriaReceita], [t0].[tipoTransacao], [c0].[Id], [c0].[tipoConta], [u].[Id], [u].[Admin], [u].[Email], [u].[Nome], [u].[SenhaHash], [u].[SenhaNormal]
FROM (
    SELECT [t].[Id], [t].[CategoriaId], [t].[ContaId], [t].[Data], [t].[Descricao], [t].[Recorrencia], [t].[RecorrenciaDataLimite], [t].[RecorrenciaModo], [t].[RecorrenciaNVezes], [t].[UsuarioId], [t].[Valor], [c].[Id] AS [Id0], [c].[categoriaDespesa], [c].[categoriaReceita], [c].[tipoTransacao]
    FROM [Transacaos] AS [t]
    LEFT JOIN [Categorias] AS [c] ON [t].[CategoriaId] = [c].[Id]
    WHERE [c].[tipoTransacao] = N'Receita' AND [t].[UsuarioId] = @__userId_0
    ORDER BY [t].[Data] DESC
    OFFSET @__p_1 ROWS FETCH NEXT @__p_2 ROWS ONLY
) AS [t0]
LEFT JOIN [Contas] AS [c0] ON [t0].[ContaId] = [c0].[Id]
INNER JOIN [Usuarios] AS [u] ON [t0].[UsuarioId] = [u].[Id]
ORDER BY [t0].[Data] DESC
2024-06-17 11:57:59.396 -03:00 [INF] Executing OkObjectResult, writing value of type 'FinançasPessoaisWebAPI.Domain.Paginacao.Paginas`1[[FinançasPessoaisWebAPI.Application.DTOs.Transacao.TransacaoGetAllReceita, FinançasPessoaisWebAPI.Application, Version=1.0.0.0, Culture=neutral, PublicKeyToken=null]]'.
2024-06-17 11:57:59.398 -03:00 [INF] Executed action FinançasPessoaisWebAPI.Api.Controllers.TransacaoController.GetAllTransacaoAsync (FinançasPessoaisWebAPI.Api) in 9.3114ms
2024-06-17 11:57:59.398 -03:00 [INF] Executed endpoint 'FinançasPessoaisWebAPI.Api.Controllers.TransacaoController.GetAllTransacaoAsync (FinançasPessoaisWebAPI.Api)'
2024-06-17 11:57:59.399 -03:00 [INF] Request finished HTTP/1.1 GET http://localhost:5299/Receita?NumerodaPagina=1&Quantidade=50 - 200 null application/json; charset=utf-8 15.614ms
2024-06-17 11:57:59.404 -03:00 [INF] Request starting HTTP/1.1 GET http://localhost:5299/Receita?NumerodaPagina=2&Quantidade=50 - null null
2024-06-17 11:57:59.406 -03:00 [INF] CORS policy execution successful.
2024-06-17 11:57:59.407 -03:00 [INF] Executing endpoint 'FinançasPessoaisWebAPI.Api.Controllers.TransacaoController.GetAllTransacaoAsync (FinançasPessoaisWebAPI.Api)'
2024-06-17 11:57:59.407 -03:00 [INF] Route matched with {action = "GetAllTransacao", controller = "Transacao"}. Executing controller action with signature System.Threading.Tasks.Task`1[Microsoft.AspNetCore.Mvc.IActionResult] GetAllTransacaoAsync(TipoTransacao, FinançasPessoaisWebAPI.Api.Models.PaginasParams) on controller FinançasPessoaisWebAPI.Api.Controllers.TransacaoController (FinançasPessoaisWebAPI.Api).
2024-06-17 11:57:59.411 -03:00 [INF] Executed DbCommand (1ms) [Parameters=[@__userId_0='1'], CommandType='"Text"', CommandTimeout='30']
SELECT COUNT(*)
FROM [Transacaos] AS [t]
LEFT JOIN [Categorias] AS [c] ON [t].[CategoriaId] = [c].[Id]
WHERE [c].[tipoTransacao] = N'Receita' AND [t].[UsuarioId] = @__userId_0
2024-06-17 11:57:59.414 -03:00 [INF] Executed DbCommand (0ms) [Parameters=[@__userId_0='1', @__p_1='50'], CommandType='"Text"', CommandTimeout='30']
SELECT [t0].[Id], [t0].[CategoriaId], [t0].[ContaId], [t0].[Data], [t0].[Descricao], [t0].[Recorrencia], [t0].[RecorrenciaDataLimite], [t0].[RecorrenciaModo], [t0].[RecorrenciaNVezes], [t0].[UsuarioId], [t0].[Valor], [t0].[Id0], [t0].[categoriaDespesa], [t0].[categoriaReceita], [t0].[tipoTransacao], [c0].[Id], [c0].[tipoConta], [u].[Id], [u].[Admin], [u].[Email], [u].[Nome], [u].[SenhaHash], [u].[SenhaNormal]
FROM (
    SELECT [t].[Id], [t].[CategoriaId], [t].[ContaId], [t].[Data], [t].[Descricao], [t].[Recorrencia], [t].[RecorrenciaDataLimite], [t].[RecorrenciaModo], [t].[RecorrenciaNVezes], [t].[UsuarioId], [t].[Valor], [c].[Id] AS [Id0], [c].[categoriaDespesa], [c].[categoriaReceita], [c].[tipoTransacao]
    FROM [Transacaos] AS [t]
    LEFT JOIN [Categorias] AS [c] ON [t].[CategoriaId] = [c].[Id]
    WHERE [c].[tipoTransacao] = N'Receita' AND [t].[UsuarioId] = @__userId_0
    ORDER BY [t].[Data] DESC
    OFFSET @__p_1 ROWS FETCH NEXT @__p_1 ROWS ONLY
) AS [t0]
LEFT JOIN [Contas] AS [c0] ON [t0].[ContaId] = [c0].[Id]
INNER JOIN [Usuarios] AS [u] ON [t0].[UsuarioId] = [u].[Id]
ORDER BY [t0].[Data] DESC
2024-06-17 11:57:59.416 -03:00 [INF] Executing OkObjectResult, writing value of type 'FinançasPessoaisWebAPI.Domain.Paginacao.Paginas`1[[FinançasPessoaisWebAPI.Application.DTOs.Transacao.TransacaoGetAllReceita, FinançasPessoaisWebAPI.Application, Version=1.0.0.0, Culture=neutral, PublicKeyToken=null]]'.
2024-06-17 11:57:59.417 -03:00 [INF] Executed action FinançasPessoaisWebAPI.Api.Controllers.TransacaoController.GetAllTransacaoAsync (FinançasPessoaisWebAPI.Api) in 8.7519ms
2024-06-17 11:57:59.418 -03:00 [INF] Executed endpoint 'FinançasPessoaisWebAPI.Api.Controllers.TransacaoController.GetAllTransacaoAsync (FinançasPessoaisWebAPI.Api)'
2024-06-17 11:57:59.419 -03:00 [INF] Request finished HTTP/1.1 GET http://localhost:5299/Receita?NumerodaPagina=2&Quantidade=50 - 200 null application/json; charset=utf-8 15.2523ms
2024-06-17 11:57:59.422 -03:00 [INF] Request starting HTTP/1.1 GET http://localhost:5299/Despesa?NumerodaPagina=1&Quantidade=50 - null null
2024-06-17 11:57:59.424 -03:00 [INF] CORS policy execution successful.
2024-06-17 11:57:59.425 -03:00 [INF] Executing endpoint 'FinançasPessoaisWebAPI.Api.Controllers.TransacaoController.GetAllTransacaoAsync (FinançasPessoaisWebAPI.Api)'
2024-06-17 11:57:59.426 -03:00 [INF] Route matched with {action = "GetAllTransacao", controller = "Transacao"}. Executing controller action with signature System.Threading.Tasks.Task`1[Microsoft.AspNetCore.Mvc.IActionResult] GetAllTransacaoAsync(TipoTransacao, FinançasPessoaisWebAPI.Api.Models.PaginasParams) on controller FinançasPessoaisWebAPI.Api.Controllers.TransacaoController (FinançasPessoaisWebAPI.Api).
2024-06-17 11:57:59.429 -03:00 [INF] Executed DbCommand (1ms) [Parameters=[@__userId_0='1'], CommandType='"Text"', CommandTimeout='30']
SELECT COUNT(*)
FROM [Transacaos] AS [t]
LEFT JOIN [Categorias] AS [c] ON [t].[CategoriaId] = [c].[Id]
WHERE [c].[tipoTransacao] = N'Despesa' AND [t].[UsuarioId] = @__userId_0
2024-06-17 11:57:59.432 -03:00 [INF] Executed DbCommand (0ms) [Parameters=[@__userId_0='1', @__p_1='0', @__p_2='50'], CommandType='"Text"', CommandTimeout='30']
SELECT [t0].[Id], [t0].[CategoriaId], [t0].[ContaId], [t0].[Data], [t0].[Descricao], [t0].[Recorrencia], [t0].[RecorrenciaDataLimite], [t0].[RecorrenciaModo], [t0].[RecorrenciaNVezes], [t0].[UsuarioId], [t0].[Valor], [t0].[Id0], [t0].[categoriaDespesa], [t0].[categoriaReceita], [t0].[tipoTransacao], [c0].[Id], [c0].[tipoConta], [u].[Id], [u].[Admin], [u].[Email], [u].[Nome], [u].[SenhaHash], [u].[SenhaNormal]
FROM (
    SELECT [t].[Id], [t].[CategoriaId], [t].[ContaId], [t].[Data], [t].[Descricao], [t].[Recorrencia], [t].[RecorrenciaDataLimite], [t].[RecorrenciaModo], [t].[RecorrenciaNVezes], [t].[UsuarioId], [t].[Valor], [c].[Id] AS [Id0], [c].[categoriaDespesa], [c].[categoriaReceita], [c].[tipoTransacao]
    FROM [Transacaos] AS [t]
    LEFT JOIN [Categorias] AS [c] ON [t].[CategoriaId] = [c].[Id]
    WHERE [c].[tipoTransacao] = N'Despesa' AND [t].[UsuarioId] = @__userId_0
    ORDER BY [t].[Data] DESC
    OFFSET @__p_1 ROWS FETCH NEXT @__p_2 ROWS ONLY
) AS [t0]
LEFT JOIN [Contas] AS [c0] ON [t0].[ContaId] = [c0].[Id]
INNER JOIN [Usuarios] AS [u] ON [t0].[UsuarioId] = [u].[Id]
ORDER BY [t0].[Data] DESC
2024-06-17 11:57:59.435 -03:00 [INF] Executing OkObjectResult, writing value of type 'FinançasPessoaisWebAPI.Domain.Paginacao.Paginas`1[[FinançasPessoaisWebAPI.Application.DTOs.Transacao.TransacaoGetAllDespesa, FinançasPessoaisWebAPI.Application, Version=1.0.0.0, Culture=neutral, PublicKeyToken=null]]'.
2024-06-17 11:57:59.436 -03:00 [INF] Executed action FinançasPessoaisWebAPI.Api.Controllers.TransacaoController.GetAllTransacaoAsync (FinançasPessoaisWebAPI.Api) in 9.1578ms
2024-06-17 11:57:59.437 -03:00 [INF] Executed endpoint 'FinançasPessoaisWebAPI.Api.Controllers.TransacaoController.GetAllTransacaoAsync (FinançasPessoaisWebAPI.Api)'
2024-06-17 11:57:59.438 -03:00 [INF] Request finished HTTP/1.1 GET http://localhost:5299/Despesa?NumerodaPagina=1&Quantidade=50 - 200 null application/json; charset=utf-8 16.0213ms
