2024-06-17 11:38:21.431 -03:00 [INF] Request starting HTTP/1.1 OPTIONS http://localhost:5299/Login - null null
2024-06-17 11:38:21.441 -03:00 [INF] CORS policy execution successful.
2024-06-17 11:38:21.443 -03:00 [INF] Request finished HTTP/1.1 OPTIONS http://localhost:5299/Login - 204 null null 11.8147ms
2024-06-17 11:38:21.447 -03:00 [INF] Request starting HTTP/1.1 POST http://localhost:5299/Login - application/json; charset=utf-8 53
2024-06-17 11:38:21.452 -03:00 [INF] CORS policy execution successful.
2024-06-17 11:38:21.455 -03:00 [WRN] Failed to determine the https port for redirect.
2024-06-17 11:38:21.523 -03:00 [INF] Executing endpoint 'FinançasPessoaisWebAPI.Api.Controllers.AutenticaçãoController.Selecionar (FinançasPessoaisWebAPI.Api)'
2024-06-17 11:38:21.539 -03:00 [INF] Route matched with {action = "Selecionar", controller = "Autenticação"}. Executing controller action with signature System.Threading.Tasks.Task`1[Microsoft.AspNetCore.Mvc.ActionResult`1[FinançasPessoaisWebAPI.Api.Models.UserToken]] Selecionar(FinançasPessoaisWebAPI.Api.Models.Login) on controller FinançasPessoaisWebAPI.Api.Controllers.AutenticaçãoController (FinançasPessoaisWebAPI.Api).
2024-06-17 11:38:22.691 -03:00 [WRN] Sensitive data logging is enabled. Log entries and exception messages may include sensitive application data; this mode should only be enabled during development.
2024-06-17 11:38:24.377 -03:00 [INF] Executed DbCommand (60ms) [Parameters=[@__ToLower_0='jvsrvictor@gmail.com' (Size = 255)], CommandType='"Text"', CommandTimeout='30']
SELECT TOP(1) [u].[Id], [u].[Admin], [u].[Email], [u].[Nome], [u].[SenhaHash], [u].[SenhaNormal]
FROM [Usuarios] AS [u]
WHERE LOWER([u].[Email]) = @__ToLower_0
2024-06-17 11:38:24.440 -03:00 [INF] Executed DbCommand (1ms) [Parameters=[@__ToLower_0='jvsrvictor@gmail.com' (Size = 255)], CommandType='"Text"', CommandTimeout='30']
SELECT TOP(1) [u].[Id], [u].[Admin], [u].[Email], [u].[Nome], [u].[SenhaHash], [u].[SenhaNormal]
FROM [Usuarios] AS [u]
WHERE LOWER([u].[Email]) = @__ToLower_0
2024-06-17 11:38:24.446 -03:00 [INF] Executed DbCommand (1ms) [Parameters=[@__ToLower_0='jvsrvictor@gmail.com' (Size = 255)], CommandType='"Text"', CommandTimeout='30']
SELECT TOP(1) [u].[Id], [u].[Admin], [u].[Email], [u].[Nome], [u].[SenhaHash], [u].[SenhaNormal]
FROM [Usuarios] AS [u]
WHERE LOWER([u].[Email]) = @__ToLower_0
2024-06-17 11:38:24.489 -03:00 [INF] Executing ObjectResult, writing value of type 'FinançasPessoaisWebAPI.Api.Models.UserToken'.
2024-06-17 11:38:24.501 -03:00 [INF] Executed action FinançasPessoaisWebAPI.Api.Controllers.AutenticaçãoController.Selecionar (FinançasPessoaisWebAPI.Api) in 2957.6392ms
2024-06-17 11:38:24.503 -03:00 [INF] Executed endpoint 'FinançasPessoaisWebAPI.Api.Controllers.AutenticaçãoController.Selecionar (FinançasPessoaisWebAPI.Api)'
2024-06-17 11:38:24.513 -03:00 [INF] Request finished HTTP/1.1 POST http://localhost:5299/Login - 200 null application/json; charset=utf-8 3065.8195ms
2024-06-17 11:38:24.984 -03:00 [INF] Request starting HTTP/1.1 OPTIONS http://localhost:5299/Receita?NumerodaPagina=1&Quantidade=50 - null null
2024-06-17 11:38:24.987 -03:00 [INF] CORS policy execution successful.
2024-06-17 11:38:24.987 -03:00 [INF] Request finished HTTP/1.1 OPTIONS http://localhost:5299/Receita?NumerodaPagina=1&Quantidade=50 - 204 null null 5.9064ms
2024-06-17 11:38:24.990 -03:00 [INF] Request starting HTTP/1.1 GET http://localhost:5299/Receita?NumerodaPagina=1&Quantidade=50 - null null
2024-06-17 11:38:24.992 -03:00 [INF] CORS policy execution successful.
2024-06-17 11:38:25.028 -03:00 [INF] Executing endpoint 'FinançasPessoaisWebAPI.Api.Controllers.TransacaoController.GetAllTransacaoAsync (FinançasPessoaisWebAPI.Api)'
2024-06-17 11:38:25.035 -03:00 [INF] Route matched with {action = "GetAllTransacao", controller = "Transacao"}. Executing controller action with signature System.Threading.Tasks.Task`1[Microsoft.AspNetCore.Mvc.IActionResult] GetAllTransacaoAsync(TipoTransacao, FinançasPessoaisWebAPI.Api.Models.PaginasParams) on controller FinançasPessoaisWebAPI.Api.Controllers.TransacaoController (FinançasPessoaisWebAPI.Api).
2024-06-17 11:38:25.174 -03:00 [INF] Executed DbCommand (11ms) [Parameters=[@__userId_0='1'], CommandType='"Text"', CommandTimeout='30']
SELECT COUNT(*)
FROM [Transacaos] AS [t]
LEFT JOIN [Categorias] AS [c] ON [t].[CategoriaId] = [c].[Id]
WHERE [c].[tipoTransacao] = N'Receita' AND [t].[UsuarioId] = @__userId_0
2024-06-17 11:38:25.238 -03:00 [INF] Executed DbCommand (14ms) [Parameters=[@__userId_0='1', @__p_1='0', @__p_2='50'], CommandType='"Text"', CommandTimeout='30']
SELECT [t0].[Id], [t0].[CategoriaId], [t0].[ContaId], [t0].[Data], [t0].[Descricao], [t0].[Recorrencia], [t0].[RecorrenciaDataLimite], [t0].[RecorrenciaModo], [t0].[RecorrenciaNVezes], [t0].[UsuarioId], [t0].[Valor], [t0].[Id0], [t0].[categoriaDespesa], [t0].[categoriaReceita], [t0].[tipoTransacao], [c0].[Id], [c0].[tipoConta], [u].[Id], [u].[Admin], [u].[Email], [u].[Nome], [u].[SenhaHash], [u].[SenhaNormal]
FROM (
    SELECT [t].[Id], [t].[CategoriaId], [t].[ContaId], [t].[Data], [t].[Descricao], [t].[Recorrencia], [t].[RecorrenciaDataLimite], [t].[RecorrenciaModo], [t].[RecorrenciaNVezes], [t].[UsuarioId], [t].[Valor], [c].[Id] AS [Id0], [c].[categoriaDespesa], [c].[categoriaReceita], [c].[tipoTransacao]
    FROM [Transacaos] AS [t]
    LEFT JOIN [Categorias] AS [c] ON [t].[CategoriaId] = [c].[Id]
    WHERE [c].[tipoTransacao] = N'Receita' AND [t].[UsuarioId] = @__userId_0
    ORDER BY [t].[Data] DESC
    OFFSET @__p_1 ROWS FETCH NEXT @__p_2 ROWS ONLY
) AS [t0]
LEFT JOIN [Contas] AS [c0] ON [t0].[ContaId] = [c0].[Id]
INNER JOIN [Usuarios] AS [u] ON [t0].[UsuarioId] = [u].[Id]
ORDER BY [t0].[Data] DESC
2024-06-17 11:38:25.286 -03:00 [INF] Executing OkObjectResult, writing value of type 'FinançasPessoaisWebAPI.Domain.Paginacao.Paginas`1[[FinançasPessoaisWebAPI.Application.DTOs.Transacao.TransacaoGetAllReceita, FinançasPessoaisWebAPI.Application, Version=1.0.0.0, Culture=neutral, PublicKeyToken=null]]'.
2024-06-17 11:38:25.312 -03:00 [INF] Executed action FinançasPessoaisWebAPI.Api.Controllers.TransacaoController.GetAllTransacaoAsync (FinançasPessoaisWebAPI.Api) in 275.7447ms
2024-06-17 11:38:25.314 -03:00 [INF] Executed endpoint 'FinançasPessoaisWebAPI.Api.Controllers.TransacaoController.GetAllTransacaoAsync (FinançasPessoaisWebAPI.Api)'
2024-06-17 11:38:25.315 -03:00 [INF] Request finished HTTP/1.1 GET http://localhost:5299/Receita?NumerodaPagina=1&Quantidade=50 - 200 null application/json; charset=utf-8 324.8865ms
2024-06-17 11:38:25.411 -03:00 [INF] Request starting HTTP/1.1 OPTIONS http://localhost:5299/Receita?NumerodaPagina=2&Quantidade=50 - null null
2024-06-17 11:38:25.417 -03:00 [INF] CORS policy execution successful.
2024-06-17 11:38:25.418 -03:00 [INF] Request finished HTTP/1.1 OPTIONS http://localhost:5299/Receita?NumerodaPagina=2&Quantidade=50 - 204 null null 7.0038ms
2024-06-17 11:38:25.420 -03:00 [INF] Request starting HTTP/1.1 GET http://localhost:5299/Receita?NumerodaPagina=2&Quantidade=50 - null null
2024-06-17 11:38:25.422 -03:00 [INF] CORS policy execution successful.
2024-06-17 11:38:25.427 -03:00 [INF] Executing endpoint 'FinançasPessoaisWebAPI.Api.Controllers.TransacaoController.GetAllTransacaoAsync (FinançasPessoaisWebAPI.Api)'
2024-06-17 11:38:25.428 -03:00 [INF] Route matched with {action = "GetAllTransacao", controller = "Transacao"}. Executing controller action with signature System.Threading.Tasks.Task`1[Microsoft.AspNetCore.Mvc.IActionResult] GetAllTransacaoAsync(TipoTransacao, FinançasPessoaisWebAPI.Api.Models.PaginasParams) on controller FinançasPessoaisWebAPI.Api.Controllers.TransacaoController (FinançasPessoaisWebAPI.Api).
2024-06-17 11:38:25.488 -03:00 [INF] Executed DbCommand (1ms) [Parameters=[@__userId_0='1'], CommandType='"Text"', CommandTimeout='30']
SELECT COUNT(*)
FROM [Transacaos] AS [t]
LEFT JOIN [Categorias] AS [c] ON [t].[CategoriaId] = [c].[Id]
WHERE [c].[tipoTransacao] = N'Receita' AND [t].[UsuarioId] = @__userId_0
2024-06-17 11:38:25.503 -03:00 [INF] Executed DbCommand (4ms) [Parameters=[@__userId_0='1', @__p_1='50'], CommandType='"Text"', CommandTimeout='30']
SELECT [t0].[Id], [t0].[CategoriaId], [t0].[ContaId], [t0].[Data], [t0].[Descricao], [t0].[Recorrencia], [t0].[RecorrenciaDataLimite], [t0].[RecorrenciaModo], [t0].[RecorrenciaNVezes], [t0].[UsuarioId], [t0].[Valor], [t0].[Id0], [t0].[categoriaDespesa], [t0].[categoriaReceita], [t0].[tipoTransacao], [c0].[Id], [c0].[tipoConta], [u].[Id], [u].[Admin], [u].[Email], [u].[Nome], [u].[SenhaHash], [u].[SenhaNormal]
FROM (
    SELECT [t].[Id], [t].[CategoriaId], [t].[ContaId], [t].[Data], [t].[Descricao], [t].[Recorrencia], [t].[RecorrenciaDataLimite], [t].[RecorrenciaModo], [t].[RecorrenciaNVezes], [t].[UsuarioId], [t].[Valor], [c].[Id] AS [Id0], [c].[categoriaDespesa], [c].[categoriaReceita], [c].[tipoTransacao]
    FROM [Transacaos] AS [t]
    LEFT JOIN [Categorias] AS [c] ON [t].[CategoriaId] = [c].[Id]
    WHERE [c].[tipoTransacao] = N'Receita' AND [t].[UsuarioId] = @__userId_0
    ORDER BY [t].[Data] DESC
    OFFSET @__p_1 ROWS FETCH NEXT @__p_1 ROWS ONLY
) AS [t0]
LEFT JOIN [Contas] AS [c0] ON [t0].[ContaId] = [c0].[Id]
INNER JOIN [Usuarios] AS [u] ON [t0].[UsuarioId] = [u].[Id]
ORDER BY [t0].[Data] DESC
2024-06-17 11:38:25.507 -03:00 [INF] Executing OkObjectResult, writing value of type 'FinançasPessoaisWebAPI.Domain.Paginacao.Paginas`1[[FinançasPessoaisWebAPI.Application.DTOs.Transacao.TransacaoGetAllReceita, FinançasPessoaisWebAPI.Application, Version=1.0.0.0, Culture=neutral, PublicKeyToken=null]]'.
2024-06-17 11:38:25.508 -03:00 [INF] Executed action FinançasPessoaisWebAPI.Api.Controllers.TransacaoController.GetAllTransacaoAsync (FinançasPessoaisWebAPI.Api) in 78.6591ms
2024-06-17 11:38:25.509 -03:00 [INF] Executed endpoint 'FinançasPessoaisWebAPI.Api.Controllers.TransacaoController.GetAllTransacaoAsync (FinançasPessoaisWebAPI.Api)'
2024-06-17 11:38:25.510 -03:00 [INF] Request finished HTTP/1.1 GET http://localhost:5299/Receita?NumerodaPagina=2&Quantidade=50 - 200 null application/json; charset=utf-8 89.7936ms
2024-06-17 11:38:25.519 -03:00 [INF] Request starting HTTP/1.1 OPTIONS http://localhost:5299/Despesa?NumerodaPagina=1&Quantidade=50 - null null
2024-06-17 11:38:25.522 -03:00 [INF] CORS policy execution successful.
2024-06-17 11:38:25.523 -03:00 [INF] Request finished HTTP/1.1 OPTIONS http://localhost:5299/Despesa?NumerodaPagina=1&Quantidade=50 - 204 null null 4.6971ms
2024-06-17 11:38:25.526 -03:00 [INF] Request starting HTTP/1.1 GET http://localhost:5299/Despesa?NumerodaPagina=1&Quantidade=50 - null null
2024-06-17 11:38:25.528 -03:00 [INF] CORS policy execution successful.
2024-06-17 11:38:25.530 -03:00 [INF] Executing endpoint 'FinançasPessoaisWebAPI.Api.Controllers.TransacaoController.GetAllTransacaoAsync (FinançasPessoaisWebAPI.Api)'
2024-06-17 11:38:25.531 -03:00 [INF] Route matched with {action = "GetAllTransacao", controller = "Transacao"}. Executing controller action with signature System.Threading.Tasks.Task`1[Microsoft.AspNetCore.Mvc.IActionResult] GetAllTransacaoAsync(TipoTransacao, FinançasPessoaisWebAPI.Api.Models.PaginasParams) on controller FinançasPessoaisWebAPI.Api.Controllers.TransacaoController (FinançasPessoaisWebAPI.Api).
2024-06-17 11:38:25.542 -03:00 [INF] Executed DbCommand (4ms) [Parameters=[@__userId_0='1'], CommandType='"Text"', CommandTimeout='30']
SELECT COUNT(*)
FROM [Transacaos] AS [t]
LEFT JOIN [Categorias] AS [c] ON [t].[CategoriaId] = [c].[Id]
WHERE [c].[tipoTransacao] = N'Despesa' AND [t].[UsuarioId] = @__userId_0
2024-06-17 11:38:25.561 -03:00 [INF] Executed DbCommand (3ms) [Parameters=[@__userId_0='1', @__p_1='0', @__p_2='50'], CommandType='"Text"', CommandTimeout='30']
SELECT [t0].[Id], [t0].[CategoriaId], [t0].[ContaId], [t0].[Data], [t0].[Descricao], [t0].[Recorrencia], [t0].[RecorrenciaDataLimite], [t0].[RecorrenciaModo], [t0].[RecorrenciaNVezes], [t0].[UsuarioId], [t0].[Valor], [t0].[Id0], [t0].[categoriaDespesa], [t0].[categoriaReceita], [t0].[tipoTransacao], [c0].[Id], [c0].[tipoConta], [u].[Id], [u].[Admin], [u].[Email], [u].[Nome], [u].[SenhaHash], [u].[SenhaNormal]
FROM (
    SELECT [t].[Id], [t].[CategoriaId], [t].[ContaId], [t].[Data], [t].[Descricao], [t].[Recorrencia], [t].[RecorrenciaDataLimite], [t].[RecorrenciaModo], [t].[RecorrenciaNVezes], [t].[UsuarioId], [t].[Valor], [c].[Id] AS [Id0], [c].[categoriaDespesa], [c].[categoriaReceita], [c].[tipoTransacao]
    FROM [Transacaos] AS [t]
    LEFT JOIN [Categorias] AS [c] ON [t].[CategoriaId] = [c].[Id]
    WHERE [c].[tipoTransacao] = N'Despesa' AND [t].[UsuarioId] = @__userId_0
    ORDER BY [t].[Data] DESC
    OFFSET @__p_1 ROWS FETCH NEXT @__p_2 ROWS ONLY
) AS [t0]
LEFT JOIN [Contas] AS [c0] ON [t0].[ContaId] = [c0].[Id]
INNER JOIN [Usuarios] AS [u] ON [t0].[UsuarioId] = [u].[Id]
ORDER BY [t0].[Data] DESC
2024-06-17 11:38:25.568 -03:00 [INF] Executing OkObjectResult, writing value of type 'FinançasPessoaisWebAPI.Domain.Paginacao.Paginas`1[[FinançasPessoaisWebAPI.Application.DTOs.Transacao.TransacaoGetAllDespesa, FinançasPessoaisWebAPI.Application, Version=1.0.0.0, Culture=neutral, PublicKeyToken=null]]'.
2024-06-17 11:38:25.578 -03:00 [INF] Executed action FinançasPessoaisWebAPI.Api.Controllers.TransacaoController.GetAllTransacaoAsync (FinançasPessoaisWebAPI.Api) in 45.9999ms
2024-06-17 11:38:25.581 -03:00 [INF] Executed endpoint 'FinançasPessoaisWebAPI.Api.Controllers.TransacaoController.GetAllTransacaoAsync (FinançasPessoaisWebAPI.Api)'
2024-06-17 11:38:25.587 -03:00 [INF] Request finished HTTP/1.1 GET http://localhost:5299/Despesa?NumerodaPagina=1&Quantidade=50 - 200 null application/json; charset=utf-8 61.6506ms
2024-06-17 11:38:33.155 -03:00 [INF] Request starting HTTP/1.1 OPTIONS http://localhost:5299/Receita?NumerodaPagina=1&Quantidade=50 - null null
2024-06-17 11:38:33.157 -03:00 [INF] CORS policy execution successful.
2024-06-17 11:38:33.158 -03:00 [INF] Request finished HTTP/1.1 OPTIONS http://localhost:5299/Receita?NumerodaPagina=1&Quantidade=50 - 204 null null 3.1493ms
2024-06-17 11:38:33.161 -03:00 [INF] Request starting HTTP/1.1 GET http://localhost:5299/Receita?NumerodaPagina=1&Quantidade=50 - null null
2024-06-17 11:38:33.162 -03:00 [INF] CORS policy execution successful.
2024-06-17 11:38:33.163 -03:00 [INF] Executing endpoint 'FinançasPessoaisWebAPI.Api.Controllers.TransacaoController.GetAllTransacaoAsync (FinançasPessoaisWebAPI.Api)'
2024-06-17 11:38:33.164 -03:00 [INF] Route matched with {action = "GetAllTransacao", controller = "Transacao"}. Executing controller action with signature System.Threading.Tasks.Task`1[Microsoft.AspNetCore.Mvc.IActionResult] GetAllTransacaoAsync(TipoTransacao, FinançasPessoaisWebAPI.Api.Models.PaginasParams) on controller FinançasPessoaisWebAPI.Api.Controllers.TransacaoController (FinançasPessoaisWebAPI.Api).
2024-06-17 11:38:33.168 -03:00 [INF] Executed DbCommand (1ms) [Parameters=[@__userId_0='1'], CommandType='"Text"', CommandTimeout='30']
SELECT COUNT(*)
FROM [Transacaos] AS [t]
LEFT JOIN [Categorias] AS [c] ON [t].[CategoriaId] = [c].[Id]
WHERE [c].[tipoTransacao] = N'Receita' AND [t].[UsuarioId] = @__userId_0
2024-06-17 11:38:33.172 -03:00 [INF] Executed DbCommand (1ms) [Parameters=[@__userId_0='1', @__p_1='0', @__p_2='50'], CommandType='"Text"', CommandTimeout='30']
SELECT [t0].[Id], [t0].[CategoriaId], [t0].[ContaId], [t0].[Data], [t0].[Descricao], [t0].[Recorrencia], [t0].[RecorrenciaDataLimite], [t0].[RecorrenciaModo], [t0].[RecorrenciaNVezes], [t0].[UsuarioId], [t0].[Valor], [t0].[Id0], [t0].[categoriaDespesa], [t0].[categoriaReceita], [t0].[tipoTransacao], [c0].[Id], [c0].[tipoConta], [u].[Id], [u].[Admin], [u].[Email], [u].[Nome], [u].[SenhaHash], [u].[SenhaNormal]
FROM (
    SELECT [t].[Id], [t].[CategoriaId], [t].[ContaId], [t].[Data], [t].[Descricao], [t].[Recorrencia], [t].[RecorrenciaDataLimite], [t].[RecorrenciaModo], [t].[RecorrenciaNVezes], [t].[UsuarioId], [t].[Valor], [c].[Id] AS [Id0], [c].[categoriaDespesa], [c].[categoriaReceita], [c].[tipoTransacao]
    FROM [Transacaos] AS [t]
    LEFT JOIN [Categorias] AS [c] ON [t].[CategoriaId] = [c].[Id]
    WHERE [c].[tipoTransacao] = N'Receita' AND [t].[UsuarioId] = @__userId_0
    ORDER BY [t].[Data] DESC
    OFFSET @__p_1 ROWS FETCH NEXT @__p_2 ROWS ONLY
) AS [t0]
LEFT JOIN [Contas] AS [c0] ON [t0].[ContaId] = [c0].[Id]
INNER JOIN [Usuarios] AS [u] ON [t0].[UsuarioId] = [u].[Id]
ORDER BY [t0].[Data] DESC
2024-06-17 11:38:33.175 -03:00 [INF] Executing OkObjectResult, writing value of type 'FinançasPessoaisWebAPI.Domain.Paginacao.Paginas`1[[FinançasPessoaisWebAPI.Application.DTOs.Transacao.TransacaoGetAllReceita, FinançasPessoaisWebAPI.Application, Version=1.0.0.0, Culture=neutral, PublicKeyToken=null]]'.
2024-06-17 11:38:33.177 -03:00 [INF] Executed action FinançasPessoaisWebAPI.Api.Controllers.TransacaoController.GetAllTransacaoAsync (FinançasPessoaisWebAPI.Api) in 10.9262ms
2024-06-17 11:38:33.178 -03:00 [INF] Executed endpoint 'FinançasPessoaisWebAPI.Api.Controllers.TransacaoController.GetAllTransacaoAsync (FinançasPessoaisWebAPI.Api)'
2024-06-17 11:38:33.179 -03:00 [INF] Request finished HTTP/1.1 GET http://localhost:5299/Receita?NumerodaPagina=1&Quantidade=50 - 200 null application/json; charset=utf-8 18.3477ms
2024-06-17 11:38:33.273 -03:00 [INF] Request starting HTTP/1.1 OPTIONS http://localhost:5299/Receita?NumerodaPagina=2&Quantidade=50 - null null
2024-06-17 11:38:33.276 -03:00 [INF] CORS policy execution successful.
2024-06-17 11:38:33.286 -03:00 [INF] Request finished HTTP/1.1 OPTIONS http://localhost:5299/Receita?NumerodaPagina=2&Quantidade=50 - 204 null null 13.433ms
2024-06-17 11:38:33.291 -03:00 [INF] Request starting HTTP/1.1 GET http://localhost:5299/Receita?NumerodaPagina=2&Quantidade=50 - null null
2024-06-17 11:38:33.294 -03:00 [INF] CORS policy execution successful.
2024-06-17 11:38:33.295 -03:00 [INF] Executing endpoint 'FinançasPessoaisWebAPI.Api.Controllers.TransacaoController.GetAllTransacaoAsync (FinançasPessoaisWebAPI.Api)'
2024-06-17 11:38:33.297 -03:00 [INF] Route matched with {action = "GetAllTransacao", controller = "Transacao"}. Executing controller action with signature System.Threading.Tasks.Task`1[Microsoft.AspNetCore.Mvc.IActionResult] GetAllTransacaoAsync(TipoTransacao, FinançasPessoaisWebAPI.Api.Models.PaginasParams) on controller FinançasPessoaisWebAPI.Api.Controllers.TransacaoController (FinançasPessoaisWebAPI.Api).
2024-06-17 11:38:33.302 -03:00 [INF] Executed DbCommand (1ms) [Parameters=[@__userId_0='1'], CommandType='"Text"', CommandTimeout='30']
SELECT COUNT(*)
FROM [Transacaos] AS [t]
LEFT JOIN [Categorias] AS [c] ON [t].[CategoriaId] = [c].[Id]
WHERE [c].[tipoTransacao] = N'Receita' AND [t].[UsuarioId] = @__userId_0
2024-06-17 11:38:33.306 -03:00 [INF] Executed DbCommand (1ms) [Parameters=[@__userId_0='1', @__p_1='50'], CommandType='"Text"', CommandTimeout='30']
SELECT [t0].[Id], [t0].[CategoriaId], [t0].[ContaId], [t0].[Data], [t0].[Descricao], [t0].[Recorrencia], [t0].[RecorrenciaDataLimite], [t0].[RecorrenciaModo], [t0].[RecorrenciaNVezes], [t0].[UsuarioId], [t0].[Valor], [t0].[Id0], [t0].[categoriaDespesa], [t0].[categoriaReceita], [t0].[tipoTransacao], [c0].[Id], [c0].[tipoConta], [u].[Id], [u].[Admin], [u].[Email], [u].[Nome], [u].[SenhaHash], [u].[SenhaNormal]
FROM (
    SELECT [t].[Id], [t].[CategoriaId], [t].[ContaId], [t].[Data], [t].[Descricao], [t].[Recorrencia], [t].[RecorrenciaDataLimite], [t].[RecorrenciaModo], [t].[RecorrenciaNVezes], [t].[UsuarioId], [t].[Valor], [c].[Id] AS [Id0], [c].[categoriaDespesa], [c].[categoriaReceita], [c].[tipoTransacao]
    FROM [Transacaos] AS [t]
    LEFT JOIN [Categorias] AS [c] ON [t].[CategoriaId] = [c].[Id]
    WHERE [c].[tipoTransacao] = N'Receita' AND [t].[UsuarioId] = @__userId_0
    ORDER BY [t].[Data] DESC
    OFFSET @__p_1 ROWS FETCH NEXT @__p_1 ROWS ONLY
) AS [t0]
LEFT JOIN [Contas] AS [c0] ON [t0].[ContaId] = [c0].[Id]
INNER JOIN [Usuarios] AS [u] ON [t0].[UsuarioId] = [u].[Id]
ORDER BY [t0].[Data] DESC
2024-06-17 11:38:33.309 -03:00 [INF] Executing OkObjectResult, writing value of type 'FinançasPessoaisWebAPI.Domain.Paginacao.Paginas`1[[FinançasPessoaisWebAPI.Application.DTOs.Transacao.TransacaoGetAllReceita, FinançasPessoaisWebAPI.Application, Version=1.0.0.0, Culture=neutral, PublicKeyToken=null]]'.
2024-06-17 11:38:33.310 -03:00 [INF] Executed action FinançasPessoaisWebAPI.Api.Controllers.TransacaoController.GetAllTransacaoAsync (FinançasPessoaisWebAPI.Api) in 10.7764ms
2024-06-17 11:38:33.312 -03:00 [INF] Executed endpoint 'FinançasPessoaisWebAPI.Api.Controllers.TransacaoController.GetAllTransacaoAsync (FinançasPessoaisWebAPI.Api)'
2024-06-17 11:38:33.314 -03:00 [INF] Request finished HTTP/1.1 GET http://localhost:5299/Receita?NumerodaPagina=2&Quantidade=50 - 200 null application/json; charset=utf-8 23.1539ms
2024-06-17 11:38:33.324 -03:00 [INF] Request starting HTTP/1.1 OPTIONS http://localhost:5299/Despesa?NumerodaPagina=1&Quantidade=50 - null null
2024-06-17 11:38:33.327 -03:00 [INF] CORS policy execution successful.
2024-06-17 11:38:33.328 -03:00 [INF] Request finished HTTP/1.1 OPTIONS http://localhost:5299/Despesa?NumerodaPagina=1&Quantidade=50 - 204 null null 3.472ms
2024-06-17 11:38:33.331 -03:00 [INF] Request starting HTTP/1.1 GET http://localhost:5299/Despesa?NumerodaPagina=1&Quantidade=50 - null null
2024-06-17 11:38:33.333 -03:00 [INF] CORS policy execution successful.
2024-06-17 11:38:33.334 -03:00 [INF] Executing endpoint 'FinançasPessoaisWebAPI.Api.Controllers.TransacaoController.GetAllTransacaoAsync (FinançasPessoaisWebAPI.Api)'
2024-06-17 11:38:33.335 -03:00 [INF] Route matched with {action = "GetAllTransacao", controller = "Transacao"}. Executing controller action with signature System.Threading.Tasks.Task`1[Microsoft.AspNetCore.Mvc.IActionResult] GetAllTransacaoAsync(TipoTransacao, FinançasPessoaisWebAPI.Api.Models.PaginasParams) on controller FinançasPessoaisWebAPI.Api.Controllers.TransacaoController (FinançasPessoaisWebAPI.Api).
2024-06-17 11:38:33.340 -03:00 [INF] Executed DbCommand (1ms) [Parameters=[@__userId_0='1'], CommandType='"Text"', CommandTimeout='30']
SELECT COUNT(*)
FROM [Transacaos] AS [t]
LEFT JOIN [Categorias] AS [c] ON [t].[CategoriaId] = [c].[Id]
WHERE [c].[tipoTransacao] = N'Despesa' AND [t].[UsuarioId] = @__userId_0
2024-06-17 11:38:33.346 -03:00 [INF] Executed DbCommand (1ms) [Parameters=[@__userId_0='1', @__p_1='0', @__p_2='50'], CommandType='"Text"', CommandTimeout='30']
SELECT [t0].[Id], [t0].[CategoriaId], [t0].[ContaId], [t0].[Data], [t0].[Descricao], [t0].[Recorrencia], [t0].[RecorrenciaDataLimite], [t0].[RecorrenciaModo], [t0].[RecorrenciaNVezes], [t0].[UsuarioId], [t0].[Valor], [t0].[Id0], [t0].[categoriaDespesa], [t0].[categoriaReceita], [t0].[tipoTransacao], [c0].[Id], [c0].[tipoConta], [u].[Id], [u].[Admin], [u].[Email], [u].[Nome], [u].[SenhaHash], [u].[SenhaNormal]
FROM (
    SELECT [t].[Id], [t].[CategoriaId], [t].[ContaId], [t].[Data], [t].[Descricao], [t].[Recorrencia], [t].[RecorrenciaDataLimite], [t].[RecorrenciaModo], [t].[RecorrenciaNVezes], [t].[UsuarioId], [t].[Valor], [c].[Id] AS [Id0], [c].[categoriaDespesa], [c].[categoriaReceita], [c].[tipoTransacao]
    FROM [Transacaos] AS [t]
    LEFT JOIN [Categorias] AS [c] ON [t].[CategoriaId] = [c].[Id]
    WHERE [c].[tipoTransacao] = N'Despesa' AND [t].[UsuarioId] = @__userId_0
    ORDER BY [t].[Data] DESC
    OFFSET @__p_1 ROWS FETCH NEXT @__p_2 ROWS ONLY
) AS [t0]
LEFT JOIN [Contas] AS [c0] ON [t0].[ContaId] = [c0].[Id]
INNER JOIN [Usuarios] AS [u] ON [t0].[UsuarioId] = [u].[Id]
ORDER BY [t0].[Data] DESC
2024-06-17 11:38:33.353 -03:00 [INF] Executing OkObjectResult, writing value of type 'FinançasPessoaisWebAPI.Domain.Paginacao.Paginas`1[[FinançasPessoaisWebAPI.Application.DTOs.Transacao.TransacaoGetAllDespesa, FinançasPessoaisWebAPI.Application, Version=1.0.0.0, Culture=neutral, PublicKeyToken=null]]'.
2024-06-17 11:38:33.354 -03:00 [INF] Executed action FinançasPessoaisWebAPI.Api.Controllers.TransacaoController.GetAllTransacaoAsync (FinançasPessoaisWebAPI.Api) in 17.6787ms
2024-06-17 11:38:33.356 -03:00 [INF] Executed endpoint 'FinançasPessoaisWebAPI.Api.Controllers.TransacaoController.GetAllTransacaoAsync (FinançasPessoaisWebAPI.Api)'
2024-06-17 11:38:33.357 -03:00 [INF] Request finished HTTP/1.1 GET http://localhost:5299/Despesa?NumerodaPagina=1&Quantidade=50 - 200 null application/json; charset=utf-8 25.7752ms
2024-06-17 11:38:41.775 -03:00 [INF] Request starting HTTP/1.1 OPTIONS http://localhost:5299/Receita?NumerodaPagina=1&Quantidade=50 - null null
2024-06-17 11:38:41.776 -03:00 [INF] CORS policy execution successful.
2024-06-17 11:38:41.777 -03:00 [INF] Request finished HTTP/1.1 OPTIONS http://localhost:5299/Receita?NumerodaPagina=1&Quantidade=50 - 204 null null 2.638ms
2024-06-17 11:38:41.780 -03:00 [INF] Request starting HTTP/1.1 GET http://localhost:5299/Receita?NumerodaPagina=1&Quantidade=50 - null null
2024-06-17 11:38:41.781 -03:00 [INF] CORS policy execution successful.
2024-06-17 11:38:41.783 -03:00 [INF] Executing endpoint 'FinançasPessoaisWebAPI.Api.Controllers.TransacaoController.GetAllTransacaoAsync (FinançasPessoaisWebAPI.Api)'
2024-06-17 11:38:41.784 -03:00 [INF] Route matched with {action = "GetAllTransacao", controller = "Transacao"}. Executing controller action with signature System.Threading.Tasks.Task`1[Microsoft.AspNetCore.Mvc.IActionResult] GetAllTransacaoAsync(TipoTransacao, FinançasPessoaisWebAPI.Api.Models.PaginasParams) on controller FinançasPessoaisWebAPI.Api.Controllers.TransacaoController (FinançasPessoaisWebAPI.Api).
2024-06-17 11:38:41.794 -03:00 [INF] Executed DbCommand (1ms) [Parameters=[@__userId_0='1'], CommandType='"Text"', CommandTimeout='30']
SELECT COUNT(*)
FROM [Transacaos] AS [t]
LEFT JOIN [Categorias] AS [c] ON [t].[CategoriaId] = [c].[Id]
WHERE [c].[tipoTransacao] = N'Receita' AND [t].[UsuarioId] = @__userId_0
2024-06-17 11:38:41.798 -03:00 [INF] Executed DbCommand (1ms) [Parameters=[@__userId_0='1', @__p_1='0', @__p_2='50'], CommandType='"Text"', CommandTimeout='30']
SELECT [t0].[Id], [t0].[CategoriaId], [t0].[ContaId], [t0].[Data], [t0].[Descricao], [t0].[Recorrencia], [t0].[RecorrenciaDataLimite], [t0].[RecorrenciaModo], [t0].[RecorrenciaNVezes], [t0].[UsuarioId], [t0].[Valor], [t0].[Id0], [t0].[categoriaDespesa], [t0].[categoriaReceita], [t0].[tipoTransacao], [c0].[Id], [c0].[tipoConta], [u].[Id], [u].[Admin], [u].[Email], [u].[Nome], [u].[SenhaHash], [u].[SenhaNormal]
FROM (
    SELECT [t].[Id], [t].[CategoriaId], [t].[ContaId], [t].[Data], [t].[Descricao], [t].[Recorrencia], [t].[RecorrenciaDataLimite], [t].[RecorrenciaModo], [t].[RecorrenciaNVezes], [t].[UsuarioId], [t].[Valor], [c].[Id] AS [Id0], [c].[categoriaDespesa], [c].[categoriaReceita], [c].[tipoTransacao]
    FROM [Transacaos] AS [t]
    LEFT JOIN [Categorias] AS [c] ON [t].[CategoriaId] = [c].[Id]
    WHERE [c].[tipoTransacao] = N'Receita' AND [t].[UsuarioId] = @__userId_0
    ORDER BY [t].[Data] DESC
    OFFSET @__p_1 ROWS FETCH NEXT @__p_2 ROWS ONLY
) AS [t0]
LEFT JOIN [Contas] AS [c0] ON [t0].[ContaId] = [c0].[Id]
INNER JOIN [Usuarios] AS [u] ON [t0].[UsuarioId] = [u].[Id]
ORDER BY [t0].[Data] DESC
2024-06-17 11:38:41.801 -03:00 [INF] Executing OkObjectResult, writing value of type 'FinançasPessoaisWebAPI.Domain.Paginacao.Paginas`1[[FinançasPessoaisWebAPI.Application.DTOs.Transacao.TransacaoGetAllReceita, FinançasPessoaisWebAPI.Application, Version=1.0.0.0, Culture=neutral, PublicKeyToken=null]]'.
2024-06-17 11:38:41.802 -03:00 [INF] Executed action FinançasPessoaisWebAPI.Api.Controllers.TransacaoController.GetAllTransacaoAsync (FinançasPessoaisWebAPI.Api) in 16.4973ms
2024-06-17 11:38:41.803 -03:00 [INF] Executed endpoint 'FinançasPessoaisWebAPI.Api.Controllers.TransacaoController.GetAllTransacaoAsync (FinançasPessoaisWebAPI.Api)'
2024-06-17 11:38:41.805 -03:00 [INF] Request finished HTTP/1.1 GET http://localhost:5299/Receita?NumerodaPagina=1&Quantidade=50 - 200 null application/json; charset=utf-8 25.0053ms
2024-06-17 11:38:41.810 -03:00 [INF] Request starting HTTP/1.1 OPTIONS http://localhost:5299/Receita?NumerodaPagina=2&Quantidade=50 - null null
2024-06-17 11:38:41.814 -03:00 [INF] CORS policy execution successful.
2024-06-17 11:38:41.815 -03:00 [INF] Request finished HTTP/1.1 OPTIONS http://localhost:5299/Receita?NumerodaPagina=2&Quantidade=50 - 204 null null 5.7971ms
2024-06-17 11:38:41.822 -03:00 [INF] Request starting HTTP/1.1 GET http://localhost:5299/Receita?NumerodaPagina=2&Quantidade=50 - null null
2024-06-17 11:38:41.825 -03:00 [INF] CORS policy execution successful.
2024-06-17 11:38:41.826 -03:00 [INF] Executing endpoint 'FinançasPessoaisWebAPI.Api.Controllers.TransacaoController.GetAllTransacaoAsync (FinançasPessoaisWebAPI.Api)'
2024-06-17 11:38:41.827 -03:00 [INF] Route matched with {action = "GetAllTransacao", controller = "Transacao"}. Executing controller action with signature System.Threading.Tasks.Task`1[Microsoft.AspNetCore.Mvc.IActionResult] GetAllTransacaoAsync(TipoTransacao, FinançasPessoaisWebAPI.Api.Models.PaginasParams) on controller FinançasPessoaisWebAPI.Api.Controllers.TransacaoController (FinançasPessoaisWebAPI.Api).
2024-06-17 11:38:41.831 -03:00 [INF] Executed DbCommand (1ms) [Parameters=[@__userId_0='1'], CommandType='"Text"', CommandTimeout='30']
SELECT COUNT(*)
FROM [Transacaos] AS [t]
LEFT JOIN [Categorias] AS [c] ON [t].[CategoriaId] = [c].[Id]
WHERE [c].[tipoTransacao] = N'Receita' AND [t].[UsuarioId] = @__userId_0
2024-06-17 11:38:41.835 -03:00 [INF] Executed DbCommand (1ms) [Parameters=[@__userId_0='1', @__p_1='50'], CommandType='"Text"', CommandTimeout='30']
SELECT [t0].[Id], [t0].[CategoriaId], [t0].[ContaId], [t0].[Data], [t0].[Descricao], [t0].[Recorrencia], [t0].[RecorrenciaDataLimite], [t0].[RecorrenciaModo], [t0].[RecorrenciaNVezes], [t0].[UsuarioId], [t0].[Valor], [t0].[Id0], [t0].[categoriaDespesa], [t0].[categoriaReceita], [t0].[tipoTransacao], [c0].[Id], [c0].[tipoConta], [u].[Id], [u].[Admin], [u].[Email], [u].[Nome], [u].[SenhaHash], [u].[SenhaNormal]
FROM (
    SELECT [t].[Id], [t].[CategoriaId], [t].[ContaId], [t].[Data], [t].[Descricao], [t].[Recorrencia], [t].[RecorrenciaDataLimite], [t].[RecorrenciaModo], [t].[RecorrenciaNVezes], [t].[UsuarioId], [t].[Valor], [c].[Id] AS [Id0], [c].[categoriaDespesa], [c].[categoriaReceita], [c].[tipoTransacao]
    FROM [Transacaos] AS [t]
    LEFT JOIN [Categorias] AS [c] ON [t].[CategoriaId] = [c].[Id]
    WHERE [c].[tipoTransacao] = N'Receita' AND [t].[UsuarioId] = @__userId_0
    ORDER BY [t].[Data] DESC
    OFFSET @__p_1 ROWS FETCH NEXT @__p_1 ROWS ONLY
) AS [t0]
LEFT JOIN [Contas] AS [c0] ON [t0].[ContaId] = [c0].[Id]
INNER JOIN [Usuarios] AS [u] ON [t0].[UsuarioId] = [u].[Id]
ORDER BY [t0].[Data] DESC
2024-06-17 11:38:41.838 -03:00 [INF] Executing OkObjectResult, writing value of type 'FinançasPessoaisWebAPI.Domain.Paginacao.Paginas`1[[FinançasPessoaisWebAPI.Application.DTOs.Transacao.TransacaoGetAllReceita, FinançasPessoaisWebAPI.Application, Version=1.0.0.0, Culture=neutral, PublicKeyToken=null]]'.
2024-06-17 11:38:41.840 -03:00 [INF] Executed action FinançasPessoaisWebAPI.Api.Controllers.TransacaoController.GetAllTransacaoAsync (FinançasPessoaisWebAPI.Api) in 11.0672ms
2024-06-17 11:38:41.841 -03:00 [INF] Executed endpoint 'FinançasPessoaisWebAPI.Api.Controllers.TransacaoController.GetAllTransacaoAsync (FinançasPessoaisWebAPI.Api)'
2024-06-17 11:38:41.842 -03:00 [INF] Request finished HTTP/1.1 GET http://localhost:5299/Receita?NumerodaPagina=2&Quantidade=50 - 200 null application/json; charset=utf-8 19.8667ms
2024-06-17 11:38:41.848 -03:00 [INF] Request starting HTTP/1.1 OPTIONS http://localhost:5299/Despesa?NumerodaPagina=1&Quantidade=50 - null null
2024-06-17 11:38:41.852 -03:00 [INF] CORS policy execution successful.
2024-06-17 11:38:41.857 -03:00 [INF] Request finished HTTP/1.1 OPTIONS http://localhost:5299/Despesa?NumerodaPagina=1&Quantidade=50 - 204 null null 9.675ms
2024-06-17 11:38:41.860 -03:00 [INF] Request starting HTTP/1.1 GET http://localhost:5299/Despesa?NumerodaPagina=1&Quantidade=50 - null null
2024-06-17 11:38:41.862 -03:00 [INF] CORS policy execution successful.
2024-06-17 11:38:41.864 -03:00 [INF] Executing endpoint 'FinançasPessoaisWebAPI.Api.Controllers.TransacaoController.GetAllTransacaoAsync (FinançasPessoaisWebAPI.Api)'
2024-06-17 11:38:41.865 -03:00 [INF] Route matched with {action = "GetAllTransacao", controller = "Transacao"}. Executing controller action with signature System.Threading.Tasks.Task`1[Microsoft.AspNetCore.Mvc.IActionResult] GetAllTransacaoAsync(TipoTransacao, FinançasPessoaisWebAPI.Api.Models.PaginasParams) on controller FinançasPessoaisWebAPI.Api.Controllers.TransacaoController (FinançasPessoaisWebAPI.Api).
2024-06-17 11:38:41.869 -03:00 [INF] Executed DbCommand (1ms) [Parameters=[@__userId_0='1'], CommandType='"Text"', CommandTimeout='30']
SELECT COUNT(*)
FROM [Transacaos] AS [t]
LEFT JOIN [Categorias] AS [c] ON [t].[CategoriaId] = [c].[Id]
WHERE [c].[tipoTransacao] = N'Despesa' AND [t].[UsuarioId] = @__userId_0
2024-06-17 11:38:41.873 -03:00 [INF] Executed DbCommand (1ms) [Parameters=[@__userId_0='1', @__p_1='0', @__p_2='50'], CommandType='"Text"', CommandTimeout='30']
SELECT [t0].[Id], [t0].[CategoriaId], [t0].[ContaId], [t0].[Data], [t0].[Descricao], [t0].[Recorrencia], [t0].[RecorrenciaDataLimite], [t0].[RecorrenciaModo], [t0].[RecorrenciaNVezes], [t0].[UsuarioId], [t0].[Valor], [t0].[Id0], [t0].[categoriaDespesa], [t0].[categoriaReceita], [t0].[tipoTransacao], [c0].[Id], [c0].[tipoConta], [u].[Id], [u].[Admin], [u].[Email], [u].[Nome], [u].[SenhaHash], [u].[SenhaNormal]
FROM (
    SELECT [t].[Id], [t].[CategoriaId], [t].[ContaId], [t].[Data], [t].[Descricao], [t].[Recorrencia], [t].[RecorrenciaDataLimite], [t].[RecorrenciaModo], [t].[RecorrenciaNVezes], [t].[UsuarioId], [t].[Valor], [c].[Id] AS [Id0], [c].[categoriaDespesa], [c].[categoriaReceita], [c].[tipoTransacao]
    FROM [Transacaos] AS [t]
    LEFT JOIN [Categorias] AS [c] ON [t].[CategoriaId] = [c].[Id]
    WHERE [c].[tipoTransacao] = N'Despesa' AND [t].[UsuarioId] = @__userId_0
    ORDER BY [t].[Data] DESC
    OFFSET @__p_1 ROWS FETCH NEXT @__p_2 ROWS ONLY
) AS [t0]
LEFT JOIN [Contas] AS [c0] ON [t0].[ContaId] = [c0].[Id]
INNER JOIN [Usuarios] AS [u] ON [t0].[UsuarioId] = [u].[Id]
ORDER BY [t0].[Data] DESC
2024-06-17 11:38:41.876 -03:00 [INF] Executing OkObjectResult, writing value of type 'FinançasPessoaisWebAPI.Domain.Paginacao.Paginas`1[[FinançasPessoaisWebAPI.Application.DTOs.Transacao.TransacaoGetAllDespesa, FinançasPessoaisWebAPI.Application, Version=1.0.0.0, Culture=neutral, PublicKeyToken=null]]'.
2024-06-17 11:38:41.879 -03:00 [INF] Executed action FinançasPessoaisWebAPI.Api.Controllers.TransacaoController.GetAllTransacaoAsync (FinançasPessoaisWebAPI.Api) in 12.4611ms
2024-06-17 11:38:41.883 -03:00 [INF] Executed endpoint 'FinançasPessoaisWebAPI.Api.Controllers.TransacaoController.GetAllTransacaoAsync (FinançasPessoaisWebAPI.Api)'
2024-06-17 11:38:41.891 -03:00 [INF] Request finished HTTP/1.1 GET http://localhost:5299/Despesa?NumerodaPagina=1&Quantidade=50 - 200 null application/json; charset=utf-8 30.5074ms
